^C:\USERS\HANDERSON\DOCUMENTS\VISUAL STUDIO 2010\PROJECTS\CANDYINTHEDARK\DEBUG\CLICKABLE.OBJ|C:\USERS\HANDERSON\DOCUMENTS\VISUAL STUDIO 2010\PROJECTS\CANDYINTHEDARK\DEBUG\COLLIDABLE.OBJ|C:\USERS\HANDERSON\DOCUMENTS\VISUAL STUDIO 2010\PROJECTS\CANDYINTHEDARK\DEBUG\DIALOGUE.OBJ|C:\USERS\HANDERSON\DOCUMENTS\VISUAL STUDIO 2010\PROJECTS\CANDYINTHEDARK\DEBUG\ENEMYBBABY.OBJ|C:\USERS\HANDERSON\DOCUMENTS\VISUAL STUDIO 2010\PROJECTS\CANDYINTHEDARK\DEBUG\ENGINE.OBJ|C:\USERS\HANDERSON\DOCUMENTS\VISUAL STUDIO 2010\PROJECTS\CANDYINTHEDARK\DEBUG\GLOBAL.OBJ|C:\USERS\HANDERSON\DOCUMENTS\VISUAL STUDIO 2010\PROJECTS\CANDYINTHEDARK\DEBUG\HPBAR.OBJ|C:\USERS\HANDERSON\DOCUMENTS\VISUAL STUDIO 2010\PROJECTS\CANDYINTHEDARK\DEBUG\LEVEL.OBJ|C:\USERS\HANDERSON\DOCUMENTS\VISUAL STUDIO 2010\PROJECTS\CANDYINTHEDARK\DEBUG\LEVELEDITOR.OBJ|C:\USERS\HANDERSON\DOCUMENTS\VISUAL STUDIO 2010\PROJECTS\CANDYINTHEDARK\DEBUG\LEVELEDITORTILES.OBJ|C:\USERS\HANDERSON\DOCUMENTS\VISUAL STUDIO 2010\PROJECTS\CANDYINTHEDARK\DEBUG\LEVELLOADER.OBJ|C:\USERS\HANDERSON\DOCUMENTS\VISUAL STUDIO 2010\PROJECTS\CANDYINTHEDARK\DEBUG\MAIN.OBJ|C:\USERS\HANDERSON\DOCUMENTS\VISUAL STUDIO 2010\PROJECTS\CANDYINTHEDARK\DEBUG\MAP.OBJ|C:\USERS\HANDERSON\DOCUMENTS\VISUAL STUDIO 2010\PROJECTS\CANDYINTHEDARK\DEBUG\MENU.OBJ|C:\USERS\HANDERSON\DOCUMENTS\VISUAL STUDIO 2010\PROJECTS\CANDYINTHEDARK\DEBUG\MORA.OBJ|C:\USERS\HANDERSON\DOCUMENTS\VISUAL STUDIO 2010\PROJECTS\CANDYINTHEDARK\DEBUG\MUSICPLAYER.OBJ|C:\USERS\HANDERSON\DOCUMENTS\VISUAL STUDIO 2010\PROJECTS\CANDYINTHEDARK\DEBUG\PATHFINDING.OBJ|C:\USERS\HANDERSON\DOCUMENTS\VISUAL STUDIO 2010\PROJECTS\CANDYINTHEDARK\DEBUG\POWERUP.OBJ|C:\USERS\HANDERSON\DOCUMENTS\VISUAL STUDIO 2010\PROJECTS\CANDYINTHEDARK\DEBUG\READABLE.OBJ|C:\USERS\HANDERSON\DOCUMENTS\VISUAL STUDIO 2010\PROJECTS\CANDYINTHEDARK\DEBUG\TEXTBOX.OBJ
C:\WINDOWS\SYSTEM32\C_1252.NLS
C:\WINDOWS\GLOBALIZATION\SORTING\SORTDEFAULT.NLS
C:\USERS\HANDERSON\DOCUMENTS\VISUAL STUDIO 2010\PROJECTS\CANDYINTHEDARK\SDL-1.2.15\LIB\X86\SDL.LIB
C:\USERS\HANDERSON\DOCUMENTS\VISUAL STUDIO 2010\PROJECTS\CANDYINTHEDARK\SDL-1.2.15\LIB\X86\SDLMAIN.LIB
C:\USERS\HANDERSON\DOCUMENTS\VISUAL STUDIO 2010\PROJECTS\CANDYINTHEDARK\SDL-1.2.15\LIB\X86\SDL_IMAGE.LIB
C:\USERS\HANDERSON\DOCUMENTS\VISUAL STUDIO 2010\PROJECTS\CANDYINTHEDARK\SDL-1.2.15\LIB\X86\SDL_MIXER.LIB
C:\USERS\HANDERSON\DOCUMENTS\VISUAL STUDIO 2010\PROJECTS\CANDYINTHEDARK\SDL-1.2.15\LIB\X86\SDL_TTF.LIB
C:\USERS\HANDERSON\DOCUMENTS\VISUAL STUDIO 2010\PROJECTS\CANDYINTHEDARK\DEBUG\CLICKABLE.OBJ
C:\USERS\HANDERSON\DOCUMENTS\VISUAL STUDIO 2010\PROJECTS\CANDYINTHEDARK\DEBUG\COLLIDABLE.OBJ
C:\USERS\HANDERSON\DOCUMENTS\VISUAL STUDIO 2010\PROJECTS\CANDYINTHEDARK\DEBUG\DIALOGUE.OBJ
C:\USERS\HANDERSON\DOCUMENTS\VISUAL STUDIO 2010\PROJECTS\CANDYINTHEDARK\DEBUG\ENEMYBBABY.OBJ
C:\USERS\HANDERSON\DOCUMENTS\VISUAL STUDIO 2010\PROJECTS\CANDYINTHEDARK\DEBUG\ENGINE.OBJ
C:\USERS\HANDERSON\DOCUMENTS\VISUAL STUDIO 2010\PROJECTS\CANDYINTHEDARK\DEBUG\GLOBAL.OBJ
C:\USERS\HANDERSON\DOCUMENTS\VISUAL STUDIO 2010\PROJECTS\CANDYINTHEDARK\DEBUG\HPBAR.OBJ
C:\USERS\HANDERSON\DOCUMENTS\VISUAL STUDIO 2010\PROJECTS\CANDYINTHEDARK\DEBUG\LEVEL.OBJ
C:\USERS\HANDERSON\DOCUMENTS\VISUAL STUDIO 2010\PROJECTS\CANDYINTHEDARK\DEBUG\LEVELEDITOR.OBJ
C:\USERS\HANDERSON\DOCUMENTS\VISUAL STUDIO 2010\PROJECTS\CANDYINTHEDARK\DEBUG\LEVELEDITORTILES.OBJ
C:\USERS\HANDERSON\DOCUMENTS\VISUAL STUDIO 2010\PROJECTS\CANDYINTHEDARK\DEBUG\LEVELLOADER.OBJ
C:\USERS\HANDERSON\DOCUMENTS\VISUAL STUDIO 2010\PROJECTS\CANDYINTHEDARK\DEBUG\MAIN.OBJ
C:\USERS\HANDERSON\DOCUMENTS\VISUAL STUDIO 2010\PROJECTS\CANDYINTHEDARK\DEBUG\MAP.OBJ
C:\USERS\HANDERSON\DOCUMENTS\VISUAL STUDIO 2010\PROJECTS\CANDYINTHEDARK\DEBUG\MENU.OBJ
C:\USERS\HANDERSON\DOCUMENTS\VISUAL STUDIO 2010\PROJECTS\CANDYINTHEDARK\DEBUG\MORA.OBJ
C:\USERS\HANDERSON\DOCUMENTS\VISUAL STUDIO 2010\PROJECTS\CANDYINTHEDARK\DEBUG\MUSICPLAYER.OBJ
C:\USERS\HANDERSON\DOCUMENTS\VISUAL STUDIO 2010\PROJECTS\CANDYINTHEDARK\DEBUG\PATHFINDING.OBJ
C:\USERS\HANDERSON\DOCUMENTS\VISUAL STUDIO 2010\PROJECTS\CANDYINTHEDARK\DEBUG\POWERUP.OBJ
C:\USERS\HANDERSON\DOCUMENTS\VISUAL STUDIO 2010\PROJECTS\CANDYINTHEDARK\DEBUG\READABLE.OBJ
C:\USERS\HANDERSON\DOCUMENTS\VISUAL STUDIO 2010\PROJECTS\CANDYINTHEDARK\DEBUG\TEXTBOX.OBJ
C:\PROGRAM FILES (X86)\MICROSOFT VISUAL STUDIO 10.0\VC\BIN\1033\LINKUI.DLL
C:\PROGRAM FILES (X86)\MICROSOFT VISUAL STUDIO 10.0\VC\LIB\MSVCPRT.LIB
C:\PROGRAM FILES (X86)\MICROSOFT VISUAL STUDIO 10.0\VC\LIB\MSVCRT.LIB
C:\PROGRAM FILES (X86)\MICROSOFT VISUAL STUDIO 10.0\VC\LIB\OLDNAMES.LIB
C:\PROGRAM FILES (X86)\MICROSOFT SDKS\WINDOWS\V7.0A\LIB\KERNEL32.LIB
C:\WINDOWS\SYSTEM32\TZRES.DLL
