^C:\USERS\HANDERSON\DOCUMENTS\VISUAL STUDIO 2010\PROJECTS\CANDYINTHEDARK\COLLIDABLE.CPP
C:\PROGRAM FILES (X86)\MICROSOFT VISUAL STUDIO 10.0\COMMON7\IDE\MSPDBSRV.EXE
C:\USERS\HANDERSON\DOCUMENTS\VISUAL STUDIO 2010\PROJECTS\CANDYINTHEDARK\COLLIDABLE.H
C:\USERS\HANDERSON\DOCUMENTS\VISUAL STUDIO 2010\PROJECTS\CANDYINTHEDARK\SDL-1.2.15\INCLUDE\SDL.H
C:\USERS\HANDERSON\DOCUMENTS\VISUAL STUDIO 2010\PROJECTS\CANDYINTHEDARK\SDL-1.2.15\INCLUDE\SDL_MAIN.H
C:\USERS\HANDERSON\DOCUMENTS\VISUAL STUDIO 2010\PROJECTS\CANDYINTHEDARK\SDL-1.2.15\INCLUDE\SDL_STDINC.H
C:\USERS\HANDERSON\DOCUMENTS\VISUAL STUDIO 2010\PROJECTS\CANDYINTHEDARK\SDL-1.2.15\INCLUDE\SDL_CONFIG.H
C:\USERS\HANDERSON\DOCUMENTS\VISUAL STUDIO 2010\PROJECTS\CANDYINTHEDARK\SDL-1.2.15\INCLUDE\SDL_PLATFORM.H
C:\USERS\HANDERSON\DOCUMENTS\VISUAL STUDIO 2010\PROJECTS\CANDYINTHEDARK\SDL-1.2.15\INCLUDE\SDL_CONFIG_WIN32.H
C:\PROGRAM FILES (X86)\MICROSOFT VISUAL STUDIO 10.0\VC\INCLUDE\STDIO.H
C:\PROGRAM FILES (X86)\MICROSOFT VISUAL STUDIO 10.0\VC\INCLUDE\CRTDEFS.H
C:\PROGRAM FILES (X86)\MICROSOFT VISUAL STUDIO 10.0\VC\INCLUDE\SAL.H
C:\PROGRAM FILES (X86)\MICROSOFT VISUAL STUDIO 10.0\VC\INCLUDE\CODEANALYSIS\SOURCEANNOTATIONS.H
C:\PROGRAM FILES (X86)\MICROSOFT VISUAL STUDIO 10.0\VC\INCLUDE\VADEFS.H
C:\PROGRAM FILES (X86)\MICROSOFT VISUAL STUDIO 10.0\VC\INCLUDE\SWPRINTF.INL
C:\PROGRAM FILES (X86)\MICROSOFT VISUAL STUDIO 10.0\VC\INCLUDE\STDLIB.H
C:\PROGRAM FILES (X86)\MICROSOFT VISUAL STUDIO 10.0\VC\INCLUDE\LIMITS.H
C:\PROGRAM FILES (X86)\MICROSOFT VISUAL STUDIO 10.0\VC\INCLUDE\STDDEF.H
C:\PROGRAM FILES (X86)\MICROSOFT VISUAL STUDIO 10.0\VC\INCLUDE\STDARG.H
C:\PROGRAM FILES (X86)\MICROSOFT VISUAL STUDIO 10.0\VC\INCLUDE\STRING.H
C:\PROGRAM FILES (X86)\MICROSOFT VISUAL STUDIO 10.0\VC\INCLUDE\CTYPE.H
C:\USERS\HANDERSON\DOCUMENTS\VISUAL STUDIO 2010\PROJECTS\CANDYINTHEDARK\SDL-1.2.15\INCLUDE\BEGIN_CODE.H
C:\PROGRAM FILES (X86)\MICROSOFT VISUAL STUDIO 10.0\VC\INCLUDE\MALLOC.H
C:\USERS\HANDERSON\DOCUMENTS\VISUAL STUDIO 2010\PROJECTS\CANDYINTHEDARK\SDL-1.2.15\INCLUDE\CLOSE_CODE.H
C:\USERS\HANDERSON\DOCUMENTS\VISUAL STUDIO 2010\PROJECTS\CANDYINTHEDARK\SDL-1.2.15\INCLUDE\SDL_AUDIO.H
C:\USERS\HANDERSON\DOCUMENTS\VISUAL STUDIO 2010\PROJECTS\CANDYINTHEDARK\SDL-1.2.15\INCLUDE\SDL_ERROR.H
C:\USERS\HANDERSON\DOCUMENTS\VISUAL STUDIO 2010\PROJECTS\CANDYINTHEDARK\SDL-1.2.15\INCLUDE\SDL_ENDIAN.H
C:\USERS\HANDERSON\DOCUMENTS\VISUAL STUDIO 2010\PROJECTS\CANDYINTHEDARK\SDL-1.2.15\INCLUDE\SDL_MUTEX.H
C:\USERS\HANDERSON\DOCUMENTS\VISUAL STUDIO 2010\PROJECTS\CANDYINTHEDARK\SDL-1.2.15\INCLUDE\SDL_THREAD.H
C:\USERS\HANDERSON\DOCUMENTS\VISUAL STUDIO 2010\PROJECTS\CANDYINTHEDARK\SDL-1.2.15\INCLUDE\SDL_RWOPS.H
C:\USERS\HANDERSON\DOCUMENTS\VISUAL STUDIO 2010\PROJECTS\CANDYINTHEDARK\SDL-1.2.15\INCLUDE\SDL_CDROM.H
C:\USERS\HANDERSON\DOCUMENTS\VISUAL STUDIO 2010\PROJECTS\CANDYINTHEDARK\SDL-1.2.15\INCLUDE\SDL_CPUINFO.H
C:\USERS\HANDERSON\DOCUMENTS\VISUAL STUDIO 2010\PROJECTS\CANDYINTHEDARK\SDL-1.2.15\INCLUDE\SDL_EVENTS.H
C:\USERS\HANDERSON\DOCUMENTS\VISUAL STUDIO 2010\PROJECTS\CANDYINTHEDARK\SDL-1.2.15\INCLUDE\SDL_ACTIVE.H
C:\USERS\HANDERSON\DOCUMENTS\VISUAL STUDIO 2010\PROJECTS\CANDYINTHEDARK\SDL-1.2.15\INCLUDE\SDL_KEYBOARD.H
C:\USERS\HANDERSON\DOCUMENTS\VISUAL STUDIO 2010\PROJECTS\CANDYINTHEDARK\SDL-1.2.15\INCLUDE\SDL_KEYSYM.H
C:\USERS\HANDERSON\DOCUMENTS\VISUAL STUDIO 2010\PROJECTS\CANDYINTHEDARK\SDL-1.2.15\INCLUDE\SDL_MOUSE.H
C:\USERS\HANDERSON\DOCUMENTS\VISUAL STUDIO 2010\PROJECTS\CANDYINTHEDARK\SDL-1.2.15\INCLUDE\SDL_VIDEO.H
C:\USERS\HANDERSON\DOCUMENTS\VISUAL STUDIO 2010\PROJECTS\CANDYINTHEDARK\SDL-1.2.15\INCLUDE\SDL_JOYSTICK.H
C:\USERS\HANDERSON\DOCUMENTS\VISUAL STUDIO 2010\PROJECTS\CANDYINTHEDARK\SDL-1.2.15\INCLUDE\SDL_QUIT.H
C:\USERS\HANDERSON\DOCUMENTS\VISUAL STUDIO 2010\PROJECTS\CANDYINTHEDARK\SDL-1.2.15\INCLUDE\SDL_LOADSO.H
C:\USERS\HANDERSON\DOCUMENTS\VISUAL STUDIO 2010\PROJECTS\CANDYINTHEDARK\SDL-1.2.15\INCLUDE\SDL_TIMER.H
C:\USERS\HANDERSON\DOCUMENTS\VISUAL STUDIO 2010\PROJECTS\CANDYINTHEDARK\SDL-1.2.15\INCLUDE\SDL_VERSION.H
^C:\USERS\HANDERSON\DOCUMENTS\VISUAL STUDIO 2010\PROJECTS\CANDYINTHEDARK\DEBUGLEVEL.CPP
C:\USERS\HANDERSON\DOCUMENTS\VISUAL STUDIO 2010\PROJECTS\CANDYINTHEDARK\DEBUGLEVEL.H
C:\USERS\HANDERSON\DOCUMENTS\VISUAL STUDIO 2010\PROJECTS\CANDYINTHEDARK\SDL-1.2.15\INCLUDE\SDL.H
C:\USERS\HANDERSON\DOCUMENTS\VISUAL STUDIO 2010\PROJECTS\CANDYINTHEDARK\SDL-1.2.15\INCLUDE\SDL_MAIN.H
C:\USERS\HANDERSON\DOCUMENTS\VISUAL STUDIO 2010\PROJECTS\CANDYINTHEDARK\SDL-1.2.15\INCLUDE\SDL_STDINC.H
C:\USERS\HANDERSON\DOCUMENTS\VISUAL STUDIO 2010\PROJECTS\CANDYINTHEDARK\SDL-1.2.15\INCLUDE\SDL_CONFIG.H
C:\USERS\HANDERSON\DOCUMENTS\VISUAL STUDIO 2010\PROJECTS\CANDYINTHEDARK\SDL-1.2.15\INCLUDE\SDL_PLATFORM.H
C:\USERS\HANDERSON\DOCUMENTS\VISUAL STUDIO 2010\PROJECTS\CANDYINTHEDARK\SDL-1.2.15\INCLUDE\SDL_CONFIG_WIN32.H
C:\PROGRAM FILES (X86)\MICROSOFT VISUAL STUDIO 10.0\VC\INCLUDE\STDIO.H
C:\PROGRAM FILES (X86)\MICROSOFT VISUAL STUDIO 10.0\VC\INCLUDE\CRTDEFS.H
C:\PROGRAM FILES (X86)\MICROSOFT VISUAL STUDIO 10.0\VC\INCLUDE\SAL.H
C:\PROGRAM FILES (X86)\MICROSOFT VISUAL STUDIO 10.0\VC\INCLUDE\CODEANALYSIS\SOURCEANNOTATIONS.H
C:\PROGRAM FILES (X86)\MICROSOFT VISUAL STUDIO 10.0\VC\INCLUDE\VADEFS.H
C:\PROGRAM FILES (X86)\MICROSOFT VISUAL STUDIO 10.0\VC\INCLUDE\SWPRINTF.INL
C:\PROGRAM FILES (X86)\MICROSOFT VISUAL STUDIO 10.0\VC\INCLUDE\STDLIB.H
C:\PROGRAM FILES (X86)\MICROSOFT VISUAL STUDIO 10.0\VC\INCLUDE\LIMITS.H
C:\PROGRAM FILES (X86)\MICROSOFT VISUAL STUDIO 10.0\VC\INCLUDE\STDDEF.H
C:\PROGRAM FILES (X86)\MICROSOFT VISUAL STUDIO 10.0\VC\INCLUDE\STDARG.H
C:\PROGRAM FILES (X86)\MICROSOFT VISUAL STUDIO 10.0\VC\INCLUDE\STRING.H
C:\PROGRAM FILES (X86)\MICROSOFT VISUAL STUDIO 10.0\VC\INCLUDE\CTYPE.H
C:\USERS\HANDERSON\DOCUMENTS\VISUAL STUDIO 2010\PROJECTS\CANDYINTHEDARK\SDL-1.2.15\INCLUDE\BEGIN_CODE.H
C:\PROGRAM FILES (X86)\MICROSOFT VISUAL STUDIO 10.0\VC\INCLUDE\MALLOC.H
C:\USERS\HANDERSON\DOCUMENTS\VISUAL STUDIO 2010\PROJECTS\CANDYINTHEDARK\SDL-1.2.15\INCLUDE\CLOSE_CODE.H
C:\USERS\HANDERSON\DOCUMENTS\VISUAL STUDIO 2010\PROJECTS\CANDYINTHEDARK\SDL-1.2.15\INCLUDE\SDL_AUDIO.H
C:\USERS\HANDERSON\DOCUMENTS\VISUAL STUDIO 2010\PROJECTS\CANDYINTHEDARK\SDL-1.2.15\INCLUDE\SDL_ERROR.H
C:\USERS\HANDERSON\DOCUMENTS\VISUAL STUDIO 2010\PROJECTS\CANDYINTHEDARK\SDL-1.2.15\INCLUDE\SDL_ENDIAN.H
C:\USERS\HANDERSON\DOCUMENTS\VISUAL STUDIO 2010\PROJECTS\CANDYINTHEDARK\SDL-1.2.15\INCLUDE\SDL_MUTEX.H
C:\USERS\HANDERSON\DOCUMENTS\VISUAL STUDIO 2010\PROJECTS\CANDYINTHEDARK\SDL-1.2.15\INCLUDE\SDL_THREAD.H
C:\USERS\HANDERSON\DOCUMENTS\VISUAL STUDIO 2010\PROJECTS\CANDYINTHEDARK\SDL-1.2.15\INCLUDE\SDL_RWOPS.H
C:\USERS\HANDERSON\DOCUMENTS\VISUAL STUDIO 2010\PROJECTS\CANDYINTHEDARK\SDL-1.2.15\INCLUDE\SDL_CDROM.H
C:\USERS\HANDERSON\DOCUMENTS\VISUAL STUDIO 2010\PROJECTS\CANDYINTHEDARK\SDL-1.2.15\INCLUDE\SDL_CPUINFO.H
C:\USERS\HANDERSON\DOCUMENTS\VISUAL STUDIO 2010\PROJECTS\CANDYINTHEDARK\SDL-1.2.15\INCLUDE\SDL_EVENTS.H
C:\USERS\HANDERSON\DOCUMENTS\VISUAL STUDIO 2010\PROJECTS\CANDYINTHEDARK\SDL-1.2.15\INCLUDE\SDL_ACTIVE.H
C:\USERS\HANDERSON\DOCUMENTS\VISUAL STUDIO 2010\PROJECTS\CANDYINTHEDARK\SDL-1.2.15\INCLUDE\SDL_KEYBOARD.H
C:\USERS\HANDERSON\DOCUMENTS\VISUAL STUDIO 2010\PROJECTS\CANDYINTHEDARK\SDL-1.2.15\INCLUDE\SDL_KEYSYM.H
C:\USERS\HANDERSON\DOCUMENTS\VISUAL STUDIO 2010\PROJECTS\CANDYINTHEDARK\SDL-1.2.15\INCLUDE\SDL_MOUSE.H
C:\USERS\HANDERSON\DOCUMENTS\VISUAL STUDIO 2010\PROJECTS\CANDYINTHEDARK\SDL-1.2.15\INCLUDE\SDL_VIDEO.H
C:\USERS\HANDERSON\DOCUMENTS\VISUAL STUDIO 2010\PROJECTS\CANDYINTHEDARK\SDL-1.2.15\INCLUDE\SDL_JOYSTICK.H
C:\USERS\HANDERSON\DOCUMENTS\VISUAL STUDIO 2010\PROJECTS\CANDYINTHEDARK\SDL-1.2.15\INCLUDE\SDL_QUIT.H
C:\USERS\HANDERSON\DOCUMENTS\VISUAL STUDIO 2010\PROJECTS\CANDYINTHEDARK\SDL-1.2.15\INCLUDE\SDL_LOADSO.H
C:\USERS\HANDERSON\DOCUMENTS\VISUAL STUDIO 2010\PROJECTS\CANDYINTHEDARK\SDL-1.2.15\INCLUDE\SDL_TIMER.H
C:\USERS\HANDERSON\DOCUMENTS\VISUAL STUDIO 2010\PROJECTS\CANDYINTHEDARK\SDL-1.2.15\INCLUDE\SDL_VERSION.H
C:\USERS\HANDERSON\DOCUMENTS\VISUAL STUDIO 2010\PROJECTS\CANDYINTHEDARK\SDL-1.2.15\INCLUDE\SDL_IMAGE.H
C:\PROGRAM FILES (X86)\MICROSOFT VISUAL STUDIO 10.0\VC\INCLUDE\VECTOR
C:\PROGRAM FILES (X86)\MICROSOFT VISUAL STUDIO 10.0\VC\INCLUDE\MEMORY
C:\PROGRAM FILES (X86)\MICROSOFT VISUAL STUDIO 10.0\VC\INCLUDE\XMEMORY
C:\PROGRAM FILES (X86)\MICROSOFT VISUAL STUDIO 10.0\VC\INCLUDE\CSTDLIB
C:\PROGRAM FILES (X86)\MICROSOFT VISUAL STUDIO 10.0\VC\INCLUDE\YVALS.H
C:\PROGRAM FILES (X86)\MICROSOFT VISUAL STUDIO 10.0\VC\INCLUDE\USE_ANSI.H
C:\PROGRAM FILES (X86)\MICROSOFT VISUAL STUDIO 10.0\VC\INCLUDE\NEW
C:\PROGRAM FILES (X86)\MICROSOFT VISUAL STUDIO 10.0\VC\INCLUDE\EXCEPTION
C:\PROGRAM FILES (X86)\MICROSOFT VISUAL STUDIO 10.0\VC\INCLUDE\XSTDDEF
C:\PROGRAM FILES (X86)\MICROSOFT VISUAL STUDIO 10.0\VC\INCLUDE\CSTDDEF
C:\PROGRAM FILES (X86)\MICROSOFT VISUAL STUDIO 10.0\VC\INCLUDE\EH.H
C:\PROGRAM FILES (X86)\MICROSOFT VISUAL STUDIO 10.0\VC\INCLUDE\XUTILITY
C:\PROGRAM FILES (X86)\MICROSOFT VISUAL STUDIO 10.0\VC\INCLUDE\CLIMITS
C:\PROGRAM FILES (X86)\MICROSOFT VISUAL STUDIO 10.0\VC\INCLUDE\UTILITY
C:\PROGRAM FILES (X86)\MICROSOFT VISUAL STUDIO 10.0\VC\INCLUDE\IOSFWD
C:\PROGRAM FILES (X86)\MICROSOFT VISUAL STUDIO 10.0\VC\INCLUDE\CSTDIO
C:\PROGRAM FILES (X86)\MICROSOFT VISUAL STUDIO 10.0\VC\INCLUDE\CSTRING
C:\PROGRAM FILES (X86)\MICROSOFT VISUAL STUDIO 10.0\VC\INCLUDE\CWCHAR
C:\PROGRAM FILES (X86)\MICROSOFT VISUAL STUDIO 10.0\VC\INCLUDE\WCHAR.H
C:\PROGRAM FILES (X86)\MICROSOFT VISUAL STUDIO 10.0\VC\INCLUDE\WTIME.INL
C:\PROGRAM FILES (X86)\MICROSOFT VISUAL STUDIO 10.0\VC\INCLUDE\CRTDBG.H
C:\PROGRAM FILES (X86)\MICROSOFT VISUAL STUDIO 10.0\VC\INCLUDE\TYPE_TRAITS
C:\PROGRAM FILES (X86)\MICROSOFT VISUAL STUDIO 10.0\VC\INCLUDE\LIMITS
C:\PROGRAM FILES (X86)\MICROSOFT VISUAL STUDIO 10.0\VC\INCLUDE\YMATH.H
C:\PROGRAM FILES (X86)\MICROSOFT VISUAL STUDIO 10.0\VC\INCLUDE\CFLOAT
C:\PROGRAM FILES (X86)\MICROSOFT VISUAL STUDIO 10.0\VC\INCLUDE\FLOAT.H
C:\PROGRAM FILES (X86)\MICROSOFT VISUAL STUDIO 10.0\VC\INCLUDE\CRTWRN.H
C:\PROGRAM FILES (X86)\MICROSOFT VISUAL STUDIO 10.0\VC\INCLUDE\CMATH
C:\PROGRAM FILES (X86)\MICROSOFT VISUAL STUDIO 10.0\VC\INCLUDE\MATH.H
C:\PROGRAM FILES (X86)\MICROSOFT VISUAL STUDIO 10.0\VC\INCLUDE\XTR1COMMON
C:\PROGRAM FILES (X86)\MICROSOFT VISUAL STUDIO 10.0\VC\INCLUDE\XFWRAP
C:\PROGRAM FILES (X86)\MICROSOFT VISUAL STUDIO 10.0\VC\INCLUDE\XFWRAP1
C:\PROGRAM FILES (X86)\MICROSOFT VISUAL STUDIO 10.0\VC\INCLUDE\XXTYPE_TRAITS
C:\PROGRAM FILES (X86)\MICROSOFT VISUAL STUDIO 10.0\VC\INCLUDE\TYPEINFO
C:\PROGRAM FILES (X86)\MICROSOFT VISUAL STUDIO 10.0\VC\INCLUDE\INTRIN.H
C:\PROGRAM FILES (X86)\MICROSOFT VISUAL STUDIO 10.0\VC\INCLUDE\SETJMP.H
C:\PROGRAM FILES (X86)\MICROSOFT VISUAL STUDIO 10.0\VC\INCLUDE\IMMINTRIN.H
C:\PROGRAM FILES (X86)\MICROSOFT VISUAL STUDIO 10.0\VC\INCLUDE\WMMINTRIN.H
C:\PROGRAM FILES (X86)\MICROSOFT VISUAL STUDIO 10.0\VC\INCLUDE\NMMINTRIN.H
C:\PROGRAM FILES (X86)\MICROSOFT VISUAL STUDIO 10.0\VC\INCLUDE\SMMINTRIN.H
C:\PROGRAM FILES (X86)\MICROSOFT VISUAL STUDIO 10.0\VC\INCLUDE\TMMINTRIN.H
C:\PROGRAM FILES (X86)\MICROSOFT VISUAL STUDIO 10.0\VC\INCLUDE\PMMINTRIN.H
C:\PROGRAM FILES (X86)\MICROSOFT VISUAL STUDIO 10.0\VC\INCLUDE\EMMINTRIN.H
C:\PROGRAM FILES (X86)\MICROSOFT VISUAL STUDIO 10.0\VC\INCLUDE\XMMINTRIN.H
C:\PROGRAM FILES (X86)\MICROSOFT VISUAL STUDIO 10.0\VC\INCLUDE\MMINTRIN.H
C:\PROGRAM FILES (X86)\MICROSOFT VISUAL STUDIO 10.0\VC\INCLUDE\AMMINTRIN.H
C:\PROGRAM FILES (X86)\MICROSOFT VISUAL STUDIO 10.0\VC\INCLUDE\MM3DNOW.H
C:\PROGRAM FILES (X86)\MICROSOFT VISUAL STUDIO 10.0\VC\INCLUDE\XXSHARED
C:\PROGRAM FILES (X86)\MICROSOFT VISUAL STUDIO 10.0\VC\INCLUDE\STDEXCEPT
C:\PROGRAM FILES (X86)\MICROSOFT VISUAL STUDIO 10.0\VC\INCLUDE\XSTRING
C:\PROGRAM FILES (X86)\MICROSOFT VISUAL STUDIO 10.0\VC\INCLUDE\XFUNCTIONAL
C:\USERS\HANDERSON\DOCUMENTS\VISUAL STUDIO 2010\PROJECTS\CANDYINTHEDARK\LEVEL.H
C:\USERS\HANDERSON\DOCUMENTS\VISUAL STUDIO 2010\PROJECTS\CANDYINTHEDARK\COLLIDABLE.H
C:\USERS\HANDERSON\DOCUMENTS\VISUAL STUDIO 2010\PROJECTS\CANDYINTHEDARK\MONSTERS.H
C:\USERS\HANDERSON\DOCUMENTS\VISUAL STUDIO 2010\PROJECTS\CANDYINTHEDARK\MORA.H
C:\PROGRAM FILES (X86)\MICROSOFT VISUAL STUDIO 10.0\VC\INCLUDE\STRING
C:\PROGRAM FILES (X86)\MICROSOFT VISUAL STUDIO 10.0\VC\INCLUDE\ISTREAM
C:\PROGRAM FILES (X86)\MICROSOFT VISUAL STUDIO 10.0\VC\INCLUDE\OSTREAM
C:\PROGRAM FILES (X86)\MICROSOFT VISUAL STUDIO 10.0\VC\INCLUDE\IOS
C:\PROGRAM FILES (X86)\MICROSOFT VISUAL STUDIO 10.0\VC\INCLUDE\XLOCNUM
C:\PROGRAM FILES (X86)\MICROSOFT VISUAL STUDIO 10.0\VC\INCLUDE\STREAMBUF
C:\PROGRAM FILES (X86)\MICROSOFT VISUAL STUDIO 10.0\VC\INCLUDE\XIOSBASE
C:\PROGRAM FILES (X86)\MICROSOFT VISUAL STUDIO 10.0\VC\INCLUDE\XLOCALE
C:\PROGRAM FILES (X86)\MICROSOFT VISUAL STUDIO 10.0\VC\INCLUDE\XLOCINFO
C:\PROGRAM FILES (X86)\MICROSOFT VISUAL STUDIO 10.0\VC\INCLUDE\XLOCINFO.H
C:\PROGRAM FILES (X86)\MICROSOFT VISUAL STUDIO 10.0\VC\INCLUDE\LOCALE.H
C:\PROGRAM FILES (X86)\MICROSOFT VISUAL STUDIO 10.0\VC\INCLUDE\XDEBUG
C:\PROGRAM FILES (X86)\MICROSOFT VISUAL STUDIO 10.0\VC\INCLUDE\SYSTEM_ERROR
C:\PROGRAM FILES (X86)\MICROSOFT VISUAL STUDIO 10.0\VC\INCLUDE\CERRNO
C:\PROGRAM FILES (X86)\MICROSOFT VISUAL STUDIO 10.0\VC\INCLUDE\ERRNO.H
C:\PROGRAM FILES (X86)\MICROSOFT VISUAL STUDIO 10.0\VC\INCLUDE\SHARE.H
C:\USERS\HANDERSON\DOCUMENTS\VISUAL STUDIO 2010\PROJECTS\CANDYINTHEDARK\HPBAR.H
C:\USERS\HANDERSON\DOCUMENTS\VISUAL STUDIO 2010\PROJECTS\CANDYINTHEDARK\MUSICPLAYER.H
C:\USERS\HANDERSON\DOCUMENTS\VISUAL STUDIO 2010\PROJECTS\CANDYINTHEDARK\SDL-1.2.15\INCLUDE\SDL_MIXER.H
C:\USERS\HANDERSON\DOCUMENTS\VISUAL STUDIO 2010\PROJECTS\CANDYINTHEDARK\SDL-1.2.15\INCLUDE\SDL_TYPES.H
C:\USERS\HANDERSON\DOCUMENTS\VISUAL STUDIO 2010\PROJECTS\CANDYINTHEDARK\GLOBAL.H
C:\USERS\HANDERSON\DOCUMENTS\VISUAL STUDIO 2010\PROJECTS\CANDYINTHEDARK\PATHFINDING.H
C:\USERS\HANDERSON\DOCUMENTS\VISUAL STUDIO 2010\PROJECTS\CANDYINTHEDARK\NODE.H
C:\USERS\HANDERSON\DOCUMENTS\VISUAL STUDIO 2010\PROJECTS\CANDYINTHEDARK\ENEMYBBABY.H
^C:\USERS\HANDERSON\DOCUMENTS\VISUAL STUDIO 2010\PROJECTS\CANDYINTHEDARK\ENEMYBBABY.CPP
C:\USERS\HANDERSON\DOCUMENTS\VISUAL STUDIO 2010\PROJECTS\CANDYINTHEDARK\ENEMYBBABY.H
C:\USERS\HANDERSON\DOCUMENTS\VISUAL STUDIO 2010\PROJECTS\CANDYINTHEDARK\MONSTERS.H
C:\USERS\HANDERSON\DOCUMENTS\VISUAL STUDIO 2010\PROJECTS\CANDYINTHEDARK\MORA.H
C:\USERS\HANDERSON\DOCUMENTS\VISUAL STUDIO 2010\PROJECTS\CANDYINTHEDARK\SDL-1.2.15\INCLUDE\SDL.H
C:\USERS\HANDERSON\DOCUMENTS\VISUAL STUDIO 2010\PROJECTS\CANDYINTHEDARK\SDL-1.2.15\INCLUDE\SDL_MAIN.H
C:\USERS\HANDERSON\DOCUMENTS\VISUAL STUDIO 2010\PROJECTS\CANDYINTHEDARK\SDL-1.2.15\INCLUDE\SDL_STDINC.H
C:\USERS\HANDERSON\DOCUMENTS\VISUAL STUDIO 2010\PROJECTS\CANDYINTHEDARK\SDL-1.2.15\INCLUDE\SDL_CONFIG.H
C:\USERS\HANDERSON\DOCUMENTS\VISUAL STUDIO 2010\PROJECTS\CANDYINTHEDARK\SDL-1.2.15\INCLUDE\SDL_PLATFORM.H
C:\USERS\HANDERSON\DOCUMENTS\VISUAL STUDIO 2010\PROJECTS\CANDYINTHEDARK\SDL-1.2.15\INCLUDE\SDL_CONFIG_WIN32.H
C:\PROGRAM FILES (X86)\MICROSOFT VISUAL STUDIO 10.0\VC\INCLUDE\STDIO.H
C:\PROGRAM FILES (X86)\MICROSOFT VISUAL STUDIO 10.0\VC\INCLUDE\CRTDEFS.H
C:\PROGRAM FILES (X86)\MICROSOFT VISUAL STUDIO 10.0\VC\INCLUDE\SAL.H
C:\PROGRAM FILES (X86)\MICROSOFT VISUAL STUDIO 10.0\VC\INCLUDE\CODEANALYSIS\SOURCEANNOTATIONS.H
C:\PROGRAM FILES (X86)\MICROSOFT VISUAL STUDIO 10.0\VC\INCLUDE\VADEFS.H
C:\PROGRAM FILES (X86)\MICROSOFT VISUAL STUDIO 10.0\VC\INCLUDE\SWPRINTF.INL
C:\PROGRAM FILES (X86)\MICROSOFT VISUAL STUDIO 10.0\VC\INCLUDE\STDLIB.H
C:\PROGRAM FILES (X86)\MICROSOFT VISUAL STUDIO 10.0\VC\INCLUDE\LIMITS.H
C:\PROGRAM FILES (X86)\MICROSOFT VISUAL STUDIO 10.0\VC\INCLUDE\STDDEF.H
C:\PROGRAM FILES (X86)\MICROSOFT VISUAL STUDIO 10.0\VC\INCLUDE\STDARG.H
C:\PROGRAM FILES (X86)\MICROSOFT VISUAL STUDIO 10.0\VC\INCLUDE\STRING.H
C:\PROGRAM FILES (X86)\MICROSOFT VISUAL STUDIO 10.0\VC\INCLUDE\CTYPE.H
C:\USERS\HANDERSON\DOCUMENTS\VISUAL STUDIO 2010\PROJECTS\CANDYINTHEDARK\SDL-1.2.15\INCLUDE\BEGIN_CODE.H
C:\PROGRAM FILES (X86)\MICROSOFT VISUAL STUDIO 10.0\VC\INCLUDE\MALLOC.H
C:\USERS\HANDERSON\DOCUMENTS\VISUAL STUDIO 2010\PROJECTS\CANDYINTHEDARK\SDL-1.2.15\INCLUDE\CLOSE_CODE.H
C:\USERS\HANDERSON\DOCUMENTS\VISUAL STUDIO 2010\PROJECTS\CANDYINTHEDARK\SDL-1.2.15\INCLUDE\SDL_AUDIO.H
C:\USERS\HANDERSON\DOCUMENTS\VISUAL STUDIO 2010\PROJECTS\CANDYINTHEDARK\SDL-1.2.15\INCLUDE\SDL_ERROR.H
C:\USERS\HANDERSON\DOCUMENTS\VISUAL STUDIO 2010\PROJECTS\CANDYINTHEDARK\SDL-1.2.15\INCLUDE\SDL_ENDIAN.H
C:\USERS\HANDERSON\DOCUMENTS\VISUAL STUDIO 2010\PROJECTS\CANDYINTHEDARK\SDL-1.2.15\INCLUDE\SDL_MUTEX.H
C:\USERS\HANDERSON\DOCUMENTS\VISUAL STUDIO 2010\PROJECTS\CANDYINTHEDARK\SDL-1.2.15\INCLUDE\SDL_THREAD.H
C:\USERS\HANDERSON\DOCUMENTS\VISUAL STUDIO 2010\PROJECTS\CANDYINTHEDARK\SDL-1.2.15\INCLUDE\SDL_RWOPS.H
C:\USERS\HANDERSON\DOCUMENTS\VISUAL STUDIO 2010\PROJECTS\CANDYINTHEDARK\SDL-1.2.15\INCLUDE\SDL_CDROM.H
C:\USERS\HANDERSON\DOCUMENTS\VISUAL STUDIO 2010\PROJECTS\CANDYINTHEDARK\SDL-1.2.15\INCLUDE\SDL_CPUINFO.H
C:\USERS\HANDERSON\DOCUMENTS\VISUAL STUDIO 2010\PROJECTS\CANDYINTHEDARK\SDL-1.2.15\INCLUDE\SDL_EVENTS.H
C:\USERS\HANDERSON\DOCUMENTS\VISUAL STUDIO 2010\PROJECTS\CANDYINTHEDARK\SDL-1.2.15\INCLUDE\SDL_ACTIVE.H
C:\USERS\HANDERSON\DOCUMENTS\VISUAL STUDIO 2010\PROJECTS\CANDYINTHEDARK\SDL-1.2.15\INCLUDE\SDL_KEYBOARD.H
C:\USERS\HANDERSON\DOCUMENTS\VISUAL STUDIO 2010\PROJECTS\CANDYINTHEDARK\SDL-1.2.15\INCLUDE\SDL_KEYSYM.H
C:\USERS\HANDERSON\DOCUMENTS\VISUAL STUDIO 2010\PROJECTS\CANDYINTHEDARK\SDL-1.2.15\INCLUDE\SDL_MOUSE.H
C:\USERS\HANDERSON\DOCUMENTS\VISUAL STUDIO 2010\PROJECTS\CANDYINTHEDARK\SDL-1.2.15\INCLUDE\SDL_VIDEO.H
C:\USERS\HANDERSON\DOCUMENTS\VISUAL STUDIO 2010\PROJECTS\CANDYINTHEDARK\SDL-1.2.15\INCLUDE\SDL_JOYSTICK.H
C:\USERS\HANDERSON\DOCUMENTS\VISUAL STUDIO 2010\PROJECTS\CANDYINTHEDARK\SDL-1.2.15\INCLUDE\SDL_QUIT.H
C:\USERS\HANDERSON\DOCUMENTS\VISUAL STUDIO 2010\PROJECTS\CANDYINTHEDARK\SDL-1.2.15\INCLUDE\SDL_LOADSO.H
C:\USERS\HANDERSON\DOCUMENTS\VISUAL STUDIO 2010\PROJECTS\CANDYINTHEDARK\SDL-1.2.15\INCLUDE\SDL_TIMER.H
C:\USERS\HANDERSON\DOCUMENTS\VISUAL STUDIO 2010\PROJECTS\CANDYINTHEDARK\SDL-1.2.15\INCLUDE\SDL_VERSION.H
C:\USERS\HANDERSON\DOCUMENTS\VISUAL STUDIO 2010\PROJECTS\CANDYINTHEDARK\SDL-1.2.15\INCLUDE\SDL_IMAGE.H
C:\PROGRAM FILES (X86)\MICROSOFT VISUAL STUDIO 10.0\VC\INCLUDE\STRING
C:\PROGRAM FILES (X86)\MICROSOFT VISUAL STUDIO 10.0\VC\INCLUDE\ISTREAM
C:\PROGRAM FILES (X86)\MICROSOFT VISUAL STUDIO 10.0\VC\INCLUDE\OSTREAM
C:\PROGRAM FILES (X86)\MICROSOFT VISUAL STUDIO 10.0\VC\INCLUDE\IOS
C:\PROGRAM FILES (X86)\MICROSOFT VISUAL STUDIO 10.0\VC\INCLUDE\XLOCNUM
C:\PROGRAM FILES (X86)\MICROSOFT VISUAL STUDIO 10.0\VC\INCLUDE\CLIMITS
C:\PROGRAM FILES (X86)\MICROSOFT VISUAL STUDIO 10.0\VC\INCLUDE\YVALS.H
C:\PROGRAM FILES (X86)\MICROSOFT VISUAL STUDIO 10.0\VC\INCLUDE\USE_ANSI.H
C:\PROGRAM FILES (X86)\MICROSOFT VISUAL STUDIO 10.0\VC\INCLUDE\CMATH
C:\PROGRAM FILES (X86)\MICROSOFT VISUAL STUDIO 10.0\VC\INCLUDE\MATH.H
C:\PROGRAM FILES (X86)\MICROSOFT VISUAL STUDIO 10.0\VC\INCLUDE\CSTDIO
C:\PROGRAM FILES (X86)\MICROSOFT VISUAL STUDIO 10.0\VC\INCLUDE\CSTDLIB
C:\PROGRAM FILES (X86)\MICROSOFT VISUAL STUDIO 10.0\VC\INCLUDE\STREAMBUF
C:\PROGRAM FILES (X86)\MICROSOFT VISUAL STUDIO 10.0\VC\INCLUDE\XIOSBASE
C:\PROGRAM FILES (X86)\MICROSOFT VISUAL STUDIO 10.0\VC\INCLUDE\XLOCALE
C:\PROGRAM FILES (X86)\MICROSOFT VISUAL STUDIO 10.0\VC\INCLUDE\CSTRING
C:\PROGRAM FILES (X86)\MICROSOFT VISUAL STUDIO 10.0\VC\INCLUDE\STDEXCEPT
C:\PROGRAM FILES (X86)\MICROSOFT VISUAL STUDIO 10.0\VC\INCLUDE\EXCEPTION
C:\PROGRAM FILES (X86)\MICROSOFT VISUAL STUDIO 10.0\VC\INCLUDE\XSTDDEF
C:\PROGRAM FILES (X86)\MICROSOFT VISUAL STUDIO 10.0\VC\INCLUDE\CSTDDEF
C:\PROGRAM FILES (X86)\MICROSOFT VISUAL STUDIO 10.0\VC\INCLUDE\EH.H
C:\PROGRAM FILES (X86)\MICROSOFT VISUAL STUDIO 10.0\VC\INCLUDE\XSTRING
C:\PROGRAM FILES (X86)\MICROSOFT VISUAL STUDIO 10.0\VC\INCLUDE\XMEMORY
C:\PROGRAM FILES (X86)\MICROSOFT VISUAL STUDIO 10.0\VC\INCLUDE\NEW
C:\PROGRAM FILES (X86)\MICROSOFT VISUAL STUDIO 10.0\VC\INCLUDE\XUTILITY
C:\PROGRAM FILES (X86)\MICROSOFT VISUAL STUDIO 10.0\VC\INCLUDE\UTILITY
C:\PROGRAM FILES (X86)\MICROSOFT VISUAL STUDIO 10.0\VC\INCLUDE\IOSFWD
C:\PROGRAM FILES (X86)\MICROSOFT VISUAL STUDIO 10.0\VC\INCLUDE\CWCHAR
C:\PROGRAM FILES (X86)\MICROSOFT VISUAL STUDIO 10.0\VC\INCLUDE\WCHAR.H
C:\PROGRAM FILES (X86)\MICROSOFT VISUAL STUDIO 10.0\VC\INCLUDE\WTIME.INL
C:\PROGRAM FILES (X86)\MICROSOFT VISUAL STUDIO 10.0\VC\INCLUDE\CRTDBG.H
C:\PROGRAM FILES (X86)\MICROSOFT VISUAL STUDIO 10.0\VC\INCLUDE\TYPE_TRAITS
C:\PROGRAM FILES (X86)\MICROSOFT VISUAL STUDIO 10.0\VC\INCLUDE\LIMITS
C:\PROGRAM FILES (X86)\MICROSOFT VISUAL STUDIO 10.0\VC\INCLUDE\YMATH.H
C:\PROGRAM FILES (X86)\MICROSOFT VISUAL STUDIO 10.0\VC\INCLUDE\CFLOAT
C:\PROGRAM FILES (X86)\MICROSOFT VISUAL STUDIO 10.0\VC\INCLUDE\FLOAT.H
C:\PROGRAM FILES (X86)\MICROSOFT VISUAL STUDIO 10.0\VC\INCLUDE\CRTWRN.H
C:\PROGRAM FILES (X86)\MICROSOFT VISUAL STUDIO 10.0\VC\INCLUDE\XTR1COMMON
C:\PROGRAM FILES (X86)\MICROSOFT VISUAL STUDIO 10.0\VC\INCLUDE\XFWRAP
C:\PROGRAM FILES (X86)\MICROSOFT VISUAL STUDIO 10.0\VC\INCLUDE\XFWRAP1
C:\PROGRAM FILES (X86)\MICROSOFT VISUAL STUDIO 10.0\VC\INCLUDE\XXTYPE_TRAITS
C:\PROGRAM FILES (X86)\MICROSOFT VISUAL STUDIO 10.0\VC\INCLUDE\TYPEINFO
C:\PROGRAM FILES (X86)\MICROSOFT VISUAL STUDIO 10.0\VC\INCLUDE\XLOCINFO
C:\PROGRAM FILES (X86)\MICROSOFT VISUAL STUDIO 10.0\VC\INCLUDE\XLOCINFO.H
C:\PROGRAM FILES (X86)\MICROSOFT VISUAL STUDIO 10.0\VC\INCLUDE\LOCALE.H
C:\PROGRAM FILES (X86)\MICROSOFT VISUAL STUDIO 10.0\VC\INCLUDE\XDEBUG
C:\PROGRAM FILES (X86)\MICROSOFT VISUAL STUDIO 10.0\VC\INCLUDE\SYSTEM_ERROR
C:\PROGRAM FILES (X86)\MICROSOFT VISUAL STUDIO 10.0\VC\INCLUDE\CERRNO
C:\PROGRAM FILES (X86)\MICROSOFT VISUAL STUDIO 10.0\VC\INCLUDE\ERRNO.H
C:\PROGRAM FILES (X86)\MICROSOFT VISUAL STUDIO 10.0\VC\INCLUDE\SHARE.H
C:\USERS\HANDERSON\DOCUMENTS\VISUAL STUDIO 2010\PROJECTS\CANDYINTHEDARK\COLLIDABLE.H
C:\USERS\HANDERSON\DOCUMENTS\VISUAL STUDIO 2010\PROJECTS\CANDYINTHEDARK\HPBAR.H
C:\USERS\HANDERSON\DOCUMENTS\VISUAL STUDIO 2010\PROJECTS\CANDYINTHEDARK\MUSICPLAYER.H
C:\USERS\HANDERSON\DOCUMENTS\VISUAL STUDIO 2010\PROJECTS\CANDYINTHEDARK\SDL-1.2.15\INCLUDE\SDL_MIXER.H
C:\USERS\HANDERSON\DOCUMENTS\VISUAL STUDIO 2010\PROJECTS\CANDYINTHEDARK\SDL-1.2.15\INCLUDE\SDL_TYPES.H
C:\USERS\HANDERSON\DOCUMENTS\VISUAL STUDIO 2010\PROJECTS\CANDYINTHEDARK\GLOBAL.H
C:\USERS\HANDERSON\DOCUMENTS\VISUAL STUDIO 2010\PROJECTS\CANDYINTHEDARK\PATHFINDING.H
C:\PROGRAM FILES (X86)\MICROSOFT VISUAL STUDIO 10.0\VC\INCLUDE\VECTOR
C:\PROGRAM FILES (X86)\MICROSOFT VISUAL STUDIO 10.0\VC\INCLUDE\MEMORY
C:\PROGRAM FILES (X86)\MICROSOFT VISUAL STUDIO 10.0\VC\INCLUDE\INTRIN.H
C:\PROGRAM FILES (X86)\MICROSOFT VISUAL STUDIO 10.0\VC\INCLUDE\SETJMP.H
C:\PROGRAM FILES (X86)\MICROSOFT VISUAL STUDIO 10.0\VC\INCLUDE\IMMINTRIN.H
C:\PROGRAM FILES (X86)\MICROSOFT VISUAL STUDIO 10.0\VC\INCLUDE\WMMINTRIN.H
C:\PROGRAM FILES (X86)\MICROSOFT VISUAL STUDIO 10.0\VC\INCLUDE\NMMINTRIN.H
C:\PROGRAM FILES (X86)\MICROSOFT VISUAL STUDIO 10.0\VC\INCLUDE\SMMINTRIN.H
C:\PROGRAM FILES (X86)\MICROSOFT VISUAL STUDIO 10.0\VC\INCLUDE\TMMINTRIN.H
C:\PROGRAM FILES (X86)\MICROSOFT VISUAL STUDIO 10.0\VC\INCLUDE\PMMINTRIN.H
C:\PROGRAM FILES (X86)\MICROSOFT VISUAL STUDIO 10.0\VC\INCLUDE\EMMINTRIN.H
C:\PROGRAM FILES (X86)\MICROSOFT VISUAL STUDIO 10.0\VC\INCLUDE\XMMINTRIN.H
C:\PROGRAM FILES (X86)\MICROSOFT VISUAL STUDIO 10.0\VC\INCLUDE\MMINTRIN.H
C:\PROGRAM FILES (X86)\MICROSOFT VISUAL STUDIO 10.0\VC\INCLUDE\AMMINTRIN.H
C:\PROGRAM FILES (X86)\MICROSOFT VISUAL STUDIO 10.0\VC\INCLUDE\MM3DNOW.H
C:\PROGRAM FILES (X86)\MICROSOFT VISUAL STUDIO 10.0\VC\INCLUDE\XXSHARED
C:\PROGRAM FILES (X86)\MICROSOFT VISUAL STUDIO 10.0\VC\INCLUDE\XFUNCTIONAL
C:\USERS\HANDERSON\DOCUMENTS\VISUAL STUDIO 2010\PROJECTS\CANDYINTHEDARK\NODE.H
^C:\USERS\HANDERSON\DOCUMENTS\VISUAL STUDIO 2010\PROJECTS\CANDYINTHEDARK\ENGINE.CPP
C:\USERS\HANDERSON\DOCUMENTS\VISUAL STUDIO 2010\PROJECTS\CANDYINTHEDARK\ENGINE.H
C:\USERS\HANDERSON\DOCUMENTS\VISUAL STUDIO 2010\PROJECTS\CANDYINTHEDARK\SDL-1.2.15\INCLUDE\SDL.H
C:\USERS\HANDERSON\DOCUMENTS\VISUAL STUDIO 2010\PROJECTS\CANDYINTHEDARK\SDL-1.2.15\INCLUDE\SDL_MAIN.H
C:\USERS\HANDERSON\DOCUMENTS\VISUAL STUDIO 2010\PROJECTS\CANDYINTHEDARK\SDL-1.2.15\INCLUDE\SDL_STDINC.H
C:\USERS\HANDERSON\DOCUMENTS\VISUAL STUDIO 2010\PROJECTS\CANDYINTHEDARK\SDL-1.2.15\INCLUDE\SDL_CONFIG.H
C:\USERS\HANDERSON\DOCUMENTS\VISUAL STUDIO 2010\PROJECTS\CANDYINTHEDARK\SDL-1.2.15\INCLUDE\SDL_PLATFORM.H
C:\USERS\HANDERSON\DOCUMENTS\VISUAL STUDIO 2010\PROJECTS\CANDYINTHEDARK\SDL-1.2.15\INCLUDE\SDL_CONFIG_WIN32.H
C:\PROGRAM FILES (X86)\MICROSOFT VISUAL STUDIO 10.0\VC\INCLUDE\STDIO.H
C:\PROGRAM FILES (X86)\MICROSOFT VISUAL STUDIO 10.0\VC\INCLUDE\CRTDEFS.H
C:\PROGRAM FILES (X86)\MICROSOFT VISUAL STUDIO 10.0\VC\INCLUDE\SAL.H
C:\PROGRAM FILES (X86)\MICROSOFT VISUAL STUDIO 10.0\VC\INCLUDE\CODEANALYSIS\SOURCEANNOTATIONS.H
C:\PROGRAM FILES (X86)\MICROSOFT VISUAL STUDIO 10.0\VC\INCLUDE\VADEFS.H
C:\PROGRAM FILES (X86)\MICROSOFT VISUAL STUDIO 10.0\VC\INCLUDE\SWPRINTF.INL
C:\PROGRAM FILES (X86)\MICROSOFT VISUAL STUDIO 10.0\VC\INCLUDE\STDLIB.H
C:\PROGRAM FILES (X86)\MICROSOFT VISUAL STUDIO 10.0\VC\INCLUDE\LIMITS.H
C:\PROGRAM FILES (X86)\MICROSOFT VISUAL STUDIO 10.0\VC\INCLUDE\STDDEF.H
C:\PROGRAM FILES (X86)\MICROSOFT VISUAL STUDIO 10.0\VC\INCLUDE\STDARG.H
C:\PROGRAM FILES (X86)\MICROSOFT VISUAL STUDIO 10.0\VC\INCLUDE\STRING.H
C:\PROGRAM FILES (X86)\MICROSOFT VISUAL STUDIO 10.0\VC\INCLUDE\CTYPE.H
C:\USERS\HANDERSON\DOCUMENTS\VISUAL STUDIO 2010\PROJECTS\CANDYINTHEDARK\SDL-1.2.15\INCLUDE\BEGIN_CODE.H
C:\PROGRAM FILES (X86)\MICROSOFT VISUAL STUDIO 10.0\VC\INCLUDE\MALLOC.H
C:\USERS\HANDERSON\DOCUMENTS\VISUAL STUDIO 2010\PROJECTS\CANDYINTHEDARK\SDL-1.2.15\INCLUDE\CLOSE_CODE.H
C:\USERS\HANDERSON\DOCUMENTS\VISUAL STUDIO 2010\PROJECTS\CANDYINTHEDARK\SDL-1.2.15\INCLUDE\SDL_AUDIO.H
C:\USERS\HANDERSON\DOCUMENTS\VISUAL STUDIO 2010\PROJECTS\CANDYINTHEDARK\SDL-1.2.15\INCLUDE\SDL_ERROR.H
C:\USERS\HANDERSON\DOCUMENTS\VISUAL STUDIO 2010\PROJECTS\CANDYINTHEDARK\SDL-1.2.15\INCLUDE\SDL_ENDIAN.H
C:\USERS\HANDERSON\DOCUMENTS\VISUAL STUDIO 2010\PROJECTS\CANDYINTHEDARK\SDL-1.2.15\INCLUDE\SDL_MUTEX.H
C:\USERS\HANDERSON\DOCUMENTS\VISUAL STUDIO 2010\PROJECTS\CANDYINTHEDARK\SDL-1.2.15\INCLUDE\SDL_THREAD.H
C:\USERS\HANDERSON\DOCUMENTS\VISUAL STUDIO 2010\PROJECTS\CANDYINTHEDARK\SDL-1.2.15\INCLUDE\SDL_RWOPS.H
C:\USERS\HANDERSON\DOCUMENTS\VISUAL STUDIO 2010\PROJECTS\CANDYINTHEDARK\SDL-1.2.15\INCLUDE\SDL_CDROM.H
C:\USERS\HANDERSON\DOCUMENTS\VISUAL STUDIO 2010\PROJECTS\CANDYINTHEDARK\SDL-1.2.15\INCLUDE\SDL_CPUINFO.H
C:\USERS\HANDERSON\DOCUMENTS\VISUAL STUDIO 2010\PROJECTS\CANDYINTHEDARK\SDL-1.2.15\INCLUDE\SDL_EVENTS.H
C:\USERS\HANDERSON\DOCUMENTS\VISUAL STUDIO 2010\PROJECTS\CANDYINTHEDARK\SDL-1.2.15\INCLUDE\SDL_ACTIVE.H
C:\USERS\HANDERSON\DOCUMENTS\VISUAL STUDIO 2010\PROJECTS\CANDYINTHEDARK\SDL-1.2.15\INCLUDE\SDL_KEYBOARD.H
C:\USERS\HANDERSON\DOCUMENTS\VISUAL STUDIO 2010\PROJECTS\CANDYINTHEDARK\SDL-1.2.15\INCLUDE\SDL_KEYSYM.H
C:\USERS\HANDERSON\DOCUMENTS\VISUAL STUDIO 2010\PROJECTS\CANDYINTHEDARK\SDL-1.2.15\INCLUDE\SDL_MOUSE.H
C:\USERS\HANDERSON\DOCUMENTS\VISUAL STUDIO 2010\PROJECTS\CANDYINTHEDARK\SDL-1.2.15\INCLUDE\SDL_VIDEO.H
C:\USERS\HANDERSON\DOCUMENTS\VISUAL STUDIO 2010\PROJECTS\CANDYINTHEDARK\SDL-1.2.15\INCLUDE\SDL_JOYSTICK.H
C:\USERS\HANDERSON\DOCUMENTS\VISUAL STUDIO 2010\PROJECTS\CANDYINTHEDARK\SDL-1.2.15\INCLUDE\SDL_QUIT.H
C:\USERS\HANDERSON\DOCUMENTS\VISUAL STUDIO 2010\PROJECTS\CANDYINTHEDARK\SDL-1.2.15\INCLUDE\SDL_LOADSO.H
C:\USERS\HANDERSON\DOCUMENTS\VISUAL STUDIO 2010\PROJECTS\CANDYINTHEDARK\SDL-1.2.15\INCLUDE\SDL_TIMER.H
C:\USERS\HANDERSON\DOCUMENTS\VISUAL STUDIO 2010\PROJECTS\CANDYINTHEDARK\SDL-1.2.15\INCLUDE\SDL_VERSION.H
C:\USERS\HANDERSON\DOCUMENTS\VISUAL STUDIO 2010\PROJECTS\CANDYINTHEDARK\MORA.H
C:\USERS\HANDERSON\DOCUMENTS\VISUAL STUDIO 2010\PROJECTS\CANDYINTHEDARK\SDL-1.2.15\INCLUDE\SDL_IMAGE.H
C:\PROGRAM FILES (X86)\MICROSOFT VISUAL STUDIO 10.0\VC\INCLUDE\STRING
C:\PROGRAM FILES (X86)\MICROSOFT VISUAL STUDIO 10.0\VC\INCLUDE\ISTREAM
C:\PROGRAM FILES (X86)\MICROSOFT VISUAL STUDIO 10.0\VC\INCLUDE\OSTREAM
C:\PROGRAM FILES (X86)\MICROSOFT VISUAL STUDIO 10.0\VC\INCLUDE\IOS
C:\PROGRAM FILES (X86)\MICROSOFT VISUAL STUDIO 10.0\VC\INCLUDE\XLOCNUM
C:\PROGRAM FILES (X86)\MICROSOFT VISUAL STUDIO 10.0\VC\INCLUDE\CLIMITS
C:\PROGRAM FILES (X86)\MICROSOFT VISUAL STUDIO 10.0\VC\INCLUDE\YVALS.H
C:\PROGRAM FILES (X86)\MICROSOFT VISUAL STUDIO 10.0\VC\INCLUDE\USE_ANSI.H
C:\PROGRAM FILES (X86)\MICROSOFT VISUAL STUDIO 10.0\VC\INCLUDE\CMATH
C:\PROGRAM FILES (X86)\MICROSOFT VISUAL STUDIO 10.0\VC\INCLUDE\MATH.H
C:\PROGRAM FILES (X86)\MICROSOFT VISUAL STUDIO 10.0\VC\INCLUDE\CSTDIO
C:\PROGRAM FILES (X86)\MICROSOFT VISUAL STUDIO 10.0\VC\INCLUDE\CSTDLIB
C:\PROGRAM FILES (X86)\MICROSOFT VISUAL STUDIO 10.0\VC\INCLUDE\STREAMBUF
C:\PROGRAM FILES (X86)\MICROSOFT VISUAL STUDIO 10.0\VC\INCLUDE\XIOSBASE
C:\PROGRAM FILES (X86)\MICROSOFT VISUAL STUDIO 10.0\VC\INCLUDE\XLOCALE
C:\PROGRAM FILES (X86)\MICROSOFT VISUAL STUDIO 10.0\VC\INCLUDE\CSTRING
C:\PROGRAM FILES (X86)\MICROSOFT VISUAL STUDIO 10.0\VC\INCLUDE\STDEXCEPT
C:\PROGRAM FILES (X86)\MICROSOFT VISUAL STUDIO 10.0\VC\INCLUDE\EXCEPTION
C:\PROGRAM FILES (X86)\MICROSOFT VISUAL STUDIO 10.0\VC\INCLUDE\XSTDDEF
C:\PROGRAM FILES (X86)\MICROSOFT VISUAL STUDIO 10.0\VC\INCLUDE\CSTDDEF
C:\PROGRAM FILES (X86)\MICROSOFT VISUAL STUDIO 10.0\VC\INCLUDE\EH.H
C:\PROGRAM FILES (X86)\MICROSOFT VISUAL STUDIO 10.0\VC\INCLUDE\XSTRING
C:\PROGRAM FILES (X86)\MICROSOFT VISUAL STUDIO 10.0\VC\INCLUDE\XMEMORY
C:\PROGRAM FILES (X86)\MICROSOFT VISUAL STUDIO 10.0\VC\INCLUDE\NEW
C:\PROGRAM FILES (X86)\MICROSOFT VISUAL STUDIO 10.0\VC\INCLUDE\XUTILITY
C:\PROGRAM FILES (X86)\MICROSOFT VISUAL STUDIO 10.0\VC\INCLUDE\UTILITY
C:\PROGRAM FILES (X86)\MICROSOFT VISUAL STUDIO 10.0\VC\INCLUDE\IOSFWD
C:\PROGRAM FILES (X86)\MICROSOFT VISUAL STUDIO 10.0\VC\INCLUDE\CWCHAR
C:\PROGRAM FILES (X86)\MICROSOFT VISUAL STUDIO 10.0\VC\INCLUDE\WCHAR.H
C:\PROGRAM FILES (X86)\MICROSOFT VISUAL STUDIO 10.0\VC\INCLUDE\WTIME.INL
C:\PROGRAM FILES (X86)\MICROSOFT VISUAL STUDIO 10.0\VC\INCLUDE\CRTDBG.H
C:\PROGRAM FILES (X86)\MICROSOFT VISUAL STUDIO 10.0\VC\INCLUDE\TYPE_TRAITS
C:\PROGRAM FILES (X86)\MICROSOFT VISUAL STUDIO 10.0\VC\INCLUDE\LIMITS
C:\PROGRAM FILES (X86)\MICROSOFT VISUAL STUDIO 10.0\VC\INCLUDE\YMATH.H
C:\PROGRAM FILES (X86)\MICROSOFT VISUAL STUDIO 10.0\VC\INCLUDE\CFLOAT
C:\PROGRAM FILES (X86)\MICROSOFT VISUAL STUDIO 10.0\VC\INCLUDE\FLOAT.H
C:\PROGRAM FILES (X86)\MICROSOFT VISUAL STUDIO 10.0\VC\INCLUDE\CRTWRN.H
C:\PROGRAM FILES (X86)\MICROSOFT VISUAL STUDIO 10.0\VC\INCLUDE\XTR1COMMON
C:\PROGRAM FILES (X86)\MICROSOFT VISUAL STUDIO 10.0\VC\INCLUDE\XFWRAP
C:\PROGRAM FILES (X86)\MICROSOFT VISUAL STUDIO 10.0\VC\INCLUDE\XFWRAP1
C:\PROGRAM FILES (X86)\MICROSOFT VISUAL STUDIO 10.0\VC\INCLUDE\XXTYPE_TRAITS
C:\PROGRAM FILES (X86)\MICROSOFT VISUAL STUDIO 10.0\VC\INCLUDE\TYPEINFO
C:\PROGRAM FILES (X86)\MICROSOFT VISUAL STUDIO 10.0\VC\INCLUDE\XLOCINFO
C:\PROGRAM FILES (X86)\MICROSOFT VISUAL STUDIO 10.0\VC\INCLUDE\XLOCINFO.H
C:\PROGRAM FILES (X86)\MICROSOFT VISUAL STUDIO 10.0\VC\INCLUDE\LOCALE.H
C:\PROGRAM FILES (X86)\MICROSOFT VISUAL STUDIO 10.0\VC\INCLUDE\XDEBUG
C:\PROGRAM FILES (X86)\MICROSOFT VISUAL STUDIO 10.0\VC\INCLUDE\SYSTEM_ERROR
C:\PROGRAM FILES (X86)\MICROSOFT VISUAL STUDIO 10.0\VC\INCLUDE\CERRNO
C:\PROGRAM FILES (X86)\MICROSOFT VISUAL STUDIO 10.0\VC\INCLUDE\ERRNO.H
C:\PROGRAM FILES (X86)\MICROSOFT VISUAL STUDIO 10.0\VC\INCLUDE\SHARE.H
C:\USERS\HANDERSON\DOCUMENTS\VISUAL STUDIO 2010\PROJECTS\CANDYINTHEDARK\COLLIDABLE.H
C:\USERS\HANDERSON\DOCUMENTS\VISUAL STUDIO 2010\PROJECTS\CANDYINTHEDARK\HPBAR.H
C:\USERS\HANDERSON\DOCUMENTS\VISUAL STUDIO 2010\PROJECTS\CANDYINTHEDARK\MUSICPLAYER.H
C:\USERS\HANDERSON\DOCUMENTS\VISUAL STUDIO 2010\PROJECTS\CANDYINTHEDARK\SDL-1.2.15\INCLUDE\SDL_MIXER.H
C:\USERS\HANDERSON\DOCUMENTS\VISUAL STUDIO 2010\PROJECTS\CANDYINTHEDARK\SDL-1.2.15\INCLUDE\SDL_TYPES.H
C:\USERS\HANDERSON\DOCUMENTS\VISUAL STUDIO 2010\PROJECTS\CANDYINTHEDARK\GLOBAL.H
C:\USERS\HANDERSON\DOCUMENTS\VISUAL STUDIO 2010\PROJECTS\CANDYINTHEDARK\ENEMYBBABY.H
C:\USERS\HANDERSON\DOCUMENTS\VISUAL STUDIO 2010\PROJECTS\CANDYINTHEDARK\MONSTERS.H
C:\USERS\HANDERSON\DOCUMENTS\VISUAL STUDIO 2010\PROJECTS\CANDYINTHEDARK\PATHFINDING.H
C:\PROGRAM FILES (X86)\MICROSOFT VISUAL STUDIO 10.0\VC\INCLUDE\VECTOR
C:\PROGRAM FILES (X86)\MICROSOFT VISUAL STUDIO 10.0\VC\INCLUDE\MEMORY
C:\PROGRAM FILES (X86)\MICROSOFT VISUAL STUDIO 10.0\VC\INCLUDE\INTRIN.H
C:\PROGRAM FILES (X86)\MICROSOFT VISUAL STUDIO 10.0\VC\INCLUDE\SETJMP.H
C:\PROGRAM FILES (X86)\MICROSOFT VISUAL STUDIO 10.0\VC\INCLUDE\IMMINTRIN.H
C:\PROGRAM FILES (X86)\MICROSOFT VISUAL STUDIO 10.0\VC\INCLUDE\WMMINTRIN.H
C:\PROGRAM FILES (X86)\MICROSOFT VISUAL STUDIO 10.0\VC\INCLUDE\NMMINTRIN.H
C:\PROGRAM FILES (X86)\MICROSOFT VISUAL STUDIO 10.0\VC\INCLUDE\SMMINTRIN.H
C:\PROGRAM FILES (X86)\MICROSOFT VISUAL STUDIO 10.0\VC\INCLUDE\TMMINTRIN.H
C:\PROGRAM FILES (X86)\MICROSOFT VISUAL STUDIO 10.0\VC\INCLUDE\PMMINTRIN.H
C:\PROGRAM FILES (X86)\MICROSOFT VISUAL STUDIO 10.0\VC\INCLUDE\EMMINTRIN.H
C:\PROGRAM FILES (X86)\MICROSOFT VISUAL STUDIO 10.0\VC\INCLUDE\XMMINTRIN.H
C:\PROGRAM FILES (X86)\MICROSOFT VISUAL STUDIO 10.0\VC\INCLUDE\MMINTRIN.H
C:\PROGRAM FILES (X86)\MICROSOFT VISUAL STUDIO 10.0\VC\INCLUDE\AMMINTRIN.H
C:\PROGRAM FILES (X86)\MICROSOFT VISUAL STUDIO 10.0\VC\INCLUDE\MM3DNOW.H
C:\PROGRAM FILES (X86)\MICROSOFT VISUAL STUDIO 10.0\VC\INCLUDE\XXSHARED
C:\PROGRAM FILES (X86)\MICROSOFT VISUAL STUDIO 10.0\VC\INCLUDE\XFUNCTIONAL
C:\USERS\HANDERSON\DOCUMENTS\VISUAL STUDIO 2010\PROJECTS\CANDYINTHEDARK\NODE.H
C:\USERS\HANDERSON\DOCUMENTS\VISUAL STUDIO 2010\PROJECTS\CANDYINTHEDARK\DEBUGLEVEL.H
C:\USERS\HANDERSON\DOCUMENTS\VISUAL STUDIO 2010\PROJECTS\CANDYINTHEDARK\LEVEL.H
^C:\USERS\HANDERSON\DOCUMENTS\VISUAL STUDIO 2010\PROJECTS\CANDYINTHEDARK\GLOBAL.CPP
C:\USERS\HANDERSON\DOCUMENTS\VISUAL STUDIO 2010\PROJECTS\CANDYINTHEDARK\GLOBAL.H
C:\PROGRAM FILES (X86)\MICROSOFT VISUAL STUDIO 10.0\VC\INCLUDE\STRING
C:\PROGRAM FILES (X86)\MICROSOFT VISUAL STUDIO 10.0\VC\INCLUDE\ISTREAM
C:\PROGRAM FILES (X86)\MICROSOFT VISUAL STUDIO 10.0\VC\INCLUDE\OSTREAM
C:\PROGRAM FILES (X86)\MICROSOFT VISUAL STUDIO 10.0\VC\INCLUDE\IOS
C:\PROGRAM FILES (X86)\MICROSOFT VISUAL STUDIO 10.0\VC\INCLUDE\XLOCNUM
C:\PROGRAM FILES (X86)\MICROSOFT VISUAL STUDIO 10.0\VC\INCLUDE\CLIMITS
C:\PROGRAM FILES (X86)\MICROSOFT VISUAL STUDIO 10.0\VC\INCLUDE\YVALS.H
C:\PROGRAM FILES (X86)\MICROSOFT VISUAL STUDIO 10.0\VC\INCLUDE\CRTDEFS.H
C:\PROGRAM FILES (X86)\MICROSOFT VISUAL STUDIO 10.0\VC\INCLUDE\SAL.H
C:\PROGRAM FILES (X86)\MICROSOFT VISUAL STUDIO 10.0\VC\INCLUDE\CODEANALYSIS\SOURCEANNOTATIONS.H
C:\PROGRAM FILES (X86)\MICROSOFT VISUAL STUDIO 10.0\VC\INCLUDE\VADEFS.H
C:\PROGRAM FILES (X86)\MICROSOFT VISUAL STUDIO 10.0\VC\INCLUDE\USE_ANSI.H
C:\PROGRAM FILES (X86)\MICROSOFT VISUAL STUDIO 10.0\VC\INCLUDE\LIMITS.H
C:\PROGRAM FILES (X86)\MICROSOFT VISUAL STUDIO 10.0\VC\INCLUDE\CMATH
C:\PROGRAM FILES (X86)\MICROSOFT VISUAL STUDIO 10.0\VC\INCLUDE\MATH.H
C:\PROGRAM FILES (X86)\MICROSOFT VISUAL STUDIO 10.0\VC\INCLUDE\CSTDIO
C:\PROGRAM FILES (X86)\MICROSOFT VISUAL STUDIO 10.0\VC\INCLUDE\STDIO.H
C:\PROGRAM FILES (X86)\MICROSOFT VISUAL STUDIO 10.0\VC\INCLUDE\SWPRINTF.INL
C:\PROGRAM FILES (X86)\MICROSOFT VISUAL STUDIO 10.0\VC\INCLUDE\CSTDLIB
C:\PROGRAM FILES (X86)\MICROSOFT VISUAL STUDIO 10.0\VC\INCLUDE\STDLIB.H
C:\PROGRAM FILES (X86)\MICROSOFT VISUAL STUDIO 10.0\VC\INCLUDE\STREAMBUF
C:\PROGRAM FILES (X86)\MICROSOFT VISUAL STUDIO 10.0\VC\INCLUDE\XIOSBASE
C:\PROGRAM FILES (X86)\MICROSOFT VISUAL STUDIO 10.0\VC\INCLUDE\XLOCALE
C:\PROGRAM FILES (X86)\MICROSOFT VISUAL STUDIO 10.0\VC\INCLUDE\CSTRING
C:\PROGRAM FILES (X86)\MICROSOFT VISUAL STUDIO 10.0\VC\INCLUDE\STRING.H
C:\PROGRAM FILES (X86)\MICROSOFT VISUAL STUDIO 10.0\VC\INCLUDE\STDEXCEPT
C:\PROGRAM FILES (X86)\MICROSOFT VISUAL STUDIO 10.0\VC\INCLUDE\EXCEPTION
C:\PROGRAM FILES (X86)\MICROSOFT VISUAL STUDIO 10.0\VC\INCLUDE\XSTDDEF
C:\PROGRAM FILES (X86)\MICROSOFT VISUAL STUDIO 10.0\VC\INCLUDE\CSTDDEF
C:\PROGRAM FILES (X86)\MICROSOFT VISUAL STUDIO 10.0\VC\INCLUDE\STDDEF.H
C:\PROGRAM FILES (X86)\MICROSOFT VISUAL STUDIO 10.0\VC\INCLUDE\EH.H
C:\PROGRAM FILES (X86)\MICROSOFT VISUAL STUDIO 10.0\VC\INCLUDE\MALLOC.H
C:\PROGRAM FILES (X86)\MICROSOFT VISUAL STUDIO 10.0\VC\INCLUDE\XSTRING
C:\PROGRAM FILES (X86)\MICROSOFT VISUAL STUDIO 10.0\VC\INCLUDE\XMEMORY
C:\PROGRAM FILES (X86)\MICROSOFT VISUAL STUDIO 10.0\VC\INCLUDE\NEW
C:\PROGRAM FILES (X86)\MICROSOFT VISUAL STUDIO 10.0\VC\INCLUDE\XUTILITY
C:\PROGRAM FILES (X86)\MICROSOFT VISUAL STUDIO 10.0\VC\INCLUDE\UTILITY
C:\PROGRAM FILES (X86)\MICROSOFT VISUAL STUDIO 10.0\VC\INCLUDE\IOSFWD
C:\PROGRAM FILES (X86)\MICROSOFT VISUAL STUDIO 10.0\VC\INCLUDE\CWCHAR
C:\PROGRAM FILES (X86)\MICROSOFT VISUAL STUDIO 10.0\VC\INCLUDE\WCHAR.H
C:\PROGRAM FILES (X86)\MICROSOFT VISUAL STUDIO 10.0\VC\INCLUDE\WTIME.INL
C:\PROGRAM FILES (X86)\MICROSOFT VISUAL STUDIO 10.0\VC\INCLUDE\CRTDBG.H
C:\PROGRAM FILES (X86)\MICROSOFT VISUAL STUDIO 10.0\VC\INCLUDE\TYPE_TRAITS
C:\PROGRAM FILES (X86)\MICROSOFT VISUAL STUDIO 10.0\VC\INCLUDE\LIMITS
C:\PROGRAM FILES (X86)\MICROSOFT VISUAL STUDIO 10.0\VC\INCLUDE\YMATH.H
C:\PROGRAM FILES (X86)\MICROSOFT VISUAL STUDIO 10.0\VC\INCLUDE\CFLOAT
C:\PROGRAM FILES (X86)\MICROSOFT VISUAL STUDIO 10.0\VC\INCLUDE\FLOAT.H
C:\PROGRAM FILES (X86)\MICROSOFT VISUAL STUDIO 10.0\VC\INCLUDE\CRTWRN.H
C:\PROGRAM FILES (X86)\MICROSOFT VISUAL STUDIO 10.0\VC\INCLUDE\XTR1COMMON
C:\PROGRAM FILES (X86)\MICROSOFT VISUAL STUDIO 10.0\VC\INCLUDE\XFWRAP
C:\PROGRAM FILES (X86)\MICROSOFT VISUAL STUDIO 10.0\VC\INCLUDE\XFWRAP1
C:\PROGRAM FILES (X86)\MICROSOFT VISUAL STUDIO 10.0\VC\INCLUDE\XXTYPE_TRAITS
C:\PROGRAM FILES (X86)\MICROSOFT VISUAL STUDIO 10.0\VC\INCLUDE\TYPEINFO
C:\PROGRAM FILES (X86)\MICROSOFT VISUAL STUDIO 10.0\VC\INCLUDE\XLOCINFO
C:\PROGRAM FILES (X86)\MICROSOFT VISUAL STUDIO 10.0\VC\INCLUDE\XLOCINFO.H
C:\PROGRAM FILES (X86)\MICROSOFT VISUAL STUDIO 10.0\VC\INCLUDE\CTYPE.H
C:\PROGRAM FILES (X86)\MICROSOFT VISUAL STUDIO 10.0\VC\INCLUDE\LOCALE.H
C:\PROGRAM FILES (X86)\MICROSOFT VISUAL STUDIO 10.0\VC\INCLUDE\XDEBUG
C:\PROGRAM FILES (X86)\MICROSOFT VISUAL STUDIO 10.0\VC\INCLUDE\SYSTEM_ERROR
C:\PROGRAM FILES (X86)\MICROSOFT VISUAL STUDIO 10.0\VC\INCLUDE\CERRNO
C:\PROGRAM FILES (X86)\MICROSOFT VISUAL STUDIO 10.0\VC\INCLUDE\ERRNO.H
C:\PROGRAM FILES (X86)\MICROSOFT VISUAL STUDIO 10.0\VC\INCLUDE\SHARE.H
C:\USERS\HANDERSON\DOCUMENTS\VISUAL STUDIO 2010\PROJECTS\CANDYINTHEDARK\SDL-1.2.15\INCLUDE\SDL.H
C:\USERS\HANDERSON\DOCUMENTS\VISUAL STUDIO 2010\PROJECTS\CANDYINTHEDARK\SDL-1.2.15\INCLUDE\SDL_MAIN.H
C:\USERS\HANDERSON\DOCUMENTS\VISUAL STUDIO 2010\PROJECTS\CANDYINTHEDARK\SDL-1.2.15\INCLUDE\SDL_STDINC.H
C:\USERS\HANDERSON\DOCUMENTS\VISUAL STUDIO 2010\PROJECTS\CANDYINTHEDARK\SDL-1.2.15\INCLUDE\SDL_CONFIG.H
C:\USERS\HANDERSON\DOCUMENTS\VISUAL STUDIO 2010\PROJECTS\CANDYINTHEDARK\SDL-1.2.15\INCLUDE\SDL_PLATFORM.H
C:\USERS\HANDERSON\DOCUMENTS\VISUAL STUDIO 2010\PROJECTS\CANDYINTHEDARK\SDL-1.2.15\INCLUDE\SDL_CONFIG_WIN32.H
C:\PROGRAM FILES (X86)\MICROSOFT VISUAL STUDIO 10.0\VC\INCLUDE\STDARG.H
C:\USERS\HANDERSON\DOCUMENTS\VISUAL STUDIO 2010\PROJECTS\CANDYINTHEDARK\SDL-1.2.15\INCLUDE\BEGIN_CODE.H
C:\USERS\HANDERSON\DOCUMENTS\VISUAL STUDIO 2010\PROJECTS\CANDYINTHEDARK\SDL-1.2.15\INCLUDE\CLOSE_CODE.H
C:\USERS\HANDERSON\DOCUMENTS\VISUAL STUDIO 2010\PROJECTS\CANDYINTHEDARK\SDL-1.2.15\INCLUDE\SDL_AUDIO.H
C:\USERS\HANDERSON\DOCUMENTS\VISUAL STUDIO 2010\PROJECTS\CANDYINTHEDARK\SDL-1.2.15\INCLUDE\SDL_ERROR.H
C:\USERS\HANDERSON\DOCUMENTS\VISUAL STUDIO 2010\PROJECTS\CANDYINTHEDARK\SDL-1.2.15\INCLUDE\SDL_ENDIAN.H
C:\USERS\HANDERSON\DOCUMENTS\VISUAL STUDIO 2010\PROJECTS\CANDYINTHEDARK\SDL-1.2.15\INCLUDE\SDL_MUTEX.H
C:\USERS\HANDERSON\DOCUMENTS\VISUAL STUDIO 2010\PROJECTS\CANDYINTHEDARK\SDL-1.2.15\INCLUDE\SDL_THREAD.H
C:\USERS\HANDERSON\DOCUMENTS\VISUAL STUDIO 2010\PROJECTS\CANDYINTHEDARK\SDL-1.2.15\INCLUDE\SDL_RWOPS.H
C:\USERS\HANDERSON\DOCUMENTS\VISUAL STUDIO 2010\PROJECTS\CANDYINTHEDARK\SDL-1.2.15\INCLUDE\SDL_CDROM.H
C:\USERS\HANDERSON\DOCUMENTS\VISUAL STUDIO 2010\PROJECTS\CANDYINTHEDARK\SDL-1.2.15\INCLUDE\SDL_CPUINFO.H
C:\USERS\HANDERSON\DOCUMENTS\VISUAL STUDIO 2010\PROJECTS\CANDYINTHEDARK\SDL-1.2.15\INCLUDE\SDL_EVENTS.H
C:\USERS\HANDERSON\DOCUMENTS\VISUAL STUDIO 2010\PROJECTS\CANDYINTHEDARK\SDL-1.2.15\INCLUDE\SDL_ACTIVE.H
C:\USERS\HANDERSON\DOCUMENTS\VISUAL STUDIO 2010\PROJECTS\CANDYINTHEDARK\SDL-1.2.15\INCLUDE\SDL_KEYBOARD.H
C:\USERS\HANDERSON\DOCUMENTS\VISUAL STUDIO 2010\PROJECTS\CANDYINTHEDARK\SDL-1.2.15\INCLUDE\SDL_KEYSYM.H
C:\USERS\HANDERSON\DOCUMENTS\VISUAL STUDIO 2010\PROJECTS\CANDYINTHEDARK\SDL-1.2.15\INCLUDE\SDL_MOUSE.H
C:\USERS\HANDERSON\DOCUMENTS\VISUAL STUDIO 2010\PROJECTS\CANDYINTHEDARK\SDL-1.2.15\INCLUDE\SDL_VIDEO.H
C:\USERS\HANDERSON\DOCUMENTS\VISUAL STUDIO 2010\PROJECTS\CANDYINTHEDARK\SDL-1.2.15\INCLUDE\SDL_JOYSTICK.H
C:\USERS\HANDERSON\DOCUMENTS\VISUAL STUDIO 2010\PROJECTS\CANDYINTHEDARK\SDL-1.2.15\INCLUDE\SDL_QUIT.H
C:\USERS\HANDERSON\DOCUMENTS\VISUAL STUDIO 2010\PROJECTS\CANDYINTHEDARK\SDL-1.2.15\INCLUDE\SDL_LOADSO.H
C:\USERS\HANDERSON\DOCUMENTS\VISUAL STUDIO 2010\PROJECTS\CANDYINTHEDARK\SDL-1.2.15\INCLUDE\SDL_TIMER.H
C:\USERS\HANDERSON\DOCUMENTS\VISUAL STUDIO 2010\PROJECTS\CANDYINTHEDARK\SDL-1.2.15\INCLUDE\SDL_VERSION.H
C:\USERS\HANDERSON\DOCUMENTS\VISUAL STUDIO 2010\PROJECTS\CANDYINTHEDARK\SDL-1.2.15\INCLUDE\SDL_IMAGE.H
C:\USERS\HANDERSON\DOCUMENTS\VISUAL STUDIO 2010\PROJECTS\CANDYINTHEDARK\COLLIDABLE.H
^C:\USERS\HANDERSON\DOCUMENTS\VISUAL STUDIO 2010\PROJECTS\CANDYINTHEDARK\HPBAR.CPP
C:\USERS\HANDERSON\DOCUMENTS\VISUAL STUDIO 2010\PROJECTS\CANDYINTHEDARK\HPBAR.H
C:\USERS\HANDERSON\DOCUMENTS\VISUAL STUDIO 2010\PROJECTS\CANDYINTHEDARK\SDL-1.2.15\INCLUDE\SDL.H
C:\USERS\HANDERSON\DOCUMENTS\VISUAL STUDIO 2010\PROJECTS\CANDYINTHEDARK\SDL-1.2.15\INCLUDE\SDL_MAIN.H
C:\USERS\HANDERSON\DOCUMENTS\VISUAL STUDIO 2010\PROJECTS\CANDYINTHEDARK\SDL-1.2.15\INCLUDE\SDL_STDINC.H
C:\USERS\HANDERSON\DOCUMENTS\VISUAL STUDIO 2010\PROJECTS\CANDYINTHEDARK\SDL-1.2.15\INCLUDE\SDL_CONFIG.H
C:\USERS\HANDERSON\DOCUMENTS\VISUAL STUDIO 2010\PROJECTS\CANDYINTHEDARK\SDL-1.2.15\INCLUDE\SDL_PLATFORM.H
C:\USERS\HANDERSON\DOCUMENTS\VISUAL STUDIO 2010\PROJECTS\CANDYINTHEDARK\SDL-1.2.15\INCLUDE\SDL_CONFIG_WIN32.H
C:\PROGRAM FILES (X86)\MICROSOFT VISUAL STUDIO 10.0\VC\INCLUDE\STDIO.H
C:\PROGRAM FILES (X86)\MICROSOFT VISUAL STUDIO 10.0\VC\INCLUDE\CRTDEFS.H
C:\PROGRAM FILES (X86)\MICROSOFT VISUAL STUDIO 10.0\VC\INCLUDE\SAL.H
C:\PROGRAM FILES (X86)\MICROSOFT VISUAL STUDIO 10.0\VC\INCLUDE\CODEANALYSIS\SOURCEANNOTATIONS.H
C:\PROGRAM FILES (X86)\MICROSOFT VISUAL STUDIO 10.0\VC\INCLUDE\VADEFS.H
C:\PROGRAM FILES (X86)\MICROSOFT VISUAL STUDIO 10.0\VC\INCLUDE\SWPRINTF.INL
C:\PROGRAM FILES (X86)\MICROSOFT VISUAL STUDIO 10.0\VC\INCLUDE\STDLIB.H
C:\PROGRAM FILES (X86)\MICROSOFT VISUAL STUDIO 10.0\VC\INCLUDE\LIMITS.H
C:\PROGRAM FILES (X86)\MICROSOFT VISUAL STUDIO 10.0\VC\INCLUDE\STDDEF.H
C:\PROGRAM FILES (X86)\MICROSOFT VISUAL STUDIO 10.0\VC\INCLUDE\STDARG.H
C:\PROGRAM FILES (X86)\MICROSOFT VISUAL STUDIO 10.0\VC\INCLUDE\STRING.H
C:\PROGRAM FILES (X86)\MICROSOFT VISUAL STUDIO 10.0\VC\INCLUDE\CTYPE.H
C:\USERS\HANDERSON\DOCUMENTS\VISUAL STUDIO 2010\PROJECTS\CANDYINTHEDARK\SDL-1.2.15\INCLUDE\BEGIN_CODE.H
C:\PROGRAM FILES (X86)\MICROSOFT VISUAL STUDIO 10.0\VC\INCLUDE\MALLOC.H
C:\USERS\HANDERSON\DOCUMENTS\VISUAL STUDIO 2010\PROJECTS\CANDYINTHEDARK\SDL-1.2.15\INCLUDE\CLOSE_CODE.H
C:\USERS\HANDERSON\DOCUMENTS\VISUAL STUDIO 2010\PROJECTS\CANDYINTHEDARK\SDL-1.2.15\INCLUDE\SDL_AUDIO.H
C:\USERS\HANDERSON\DOCUMENTS\VISUAL STUDIO 2010\PROJECTS\CANDYINTHEDARK\SDL-1.2.15\INCLUDE\SDL_ERROR.H
C:\USERS\HANDERSON\DOCUMENTS\VISUAL STUDIO 2010\PROJECTS\CANDYINTHEDARK\SDL-1.2.15\INCLUDE\SDL_ENDIAN.H
C:\USERS\HANDERSON\DOCUMENTS\VISUAL STUDIO 2010\PROJECTS\CANDYINTHEDARK\SDL-1.2.15\INCLUDE\SDL_MUTEX.H
C:\USERS\HANDERSON\DOCUMENTS\VISUAL STUDIO 2010\PROJECTS\CANDYINTHEDARK\SDL-1.2.15\INCLUDE\SDL_THREAD.H
C:\USERS\HANDERSON\DOCUMENTS\VISUAL STUDIO 2010\PROJECTS\CANDYINTHEDARK\SDL-1.2.15\INCLUDE\SDL_RWOPS.H
C:\USERS\HANDERSON\DOCUMENTS\VISUAL STUDIO 2010\PROJECTS\CANDYINTHEDARK\SDL-1.2.15\INCLUDE\SDL_CDROM.H
C:\USERS\HANDERSON\DOCUMENTS\VISUAL STUDIO 2010\PROJECTS\CANDYINTHEDARK\SDL-1.2.15\INCLUDE\SDL_CPUINFO.H
C:\USERS\HANDERSON\DOCUMENTS\VISUAL STUDIO 2010\PROJECTS\CANDYINTHEDARK\SDL-1.2.15\INCLUDE\SDL_EVENTS.H
C:\USERS\HANDERSON\DOCUMENTS\VISUAL STUDIO 2010\PROJECTS\CANDYINTHEDARK\SDL-1.2.15\INCLUDE\SDL_ACTIVE.H
C:\USERS\HANDERSON\DOCUMENTS\VISUAL STUDIO 2010\PROJECTS\CANDYINTHEDARK\SDL-1.2.15\INCLUDE\SDL_KEYBOARD.H
C:\USERS\HANDERSON\DOCUMENTS\VISUAL STUDIO 2010\PROJECTS\CANDYINTHEDARK\SDL-1.2.15\INCLUDE\SDL_KEYSYM.H
C:\USERS\HANDERSON\DOCUMENTS\VISUAL STUDIO 2010\PROJECTS\CANDYINTHEDARK\SDL-1.2.15\INCLUDE\SDL_MOUSE.H
C:\USERS\HANDERSON\DOCUMENTS\VISUAL STUDIO 2010\PROJECTS\CANDYINTHEDARK\SDL-1.2.15\INCLUDE\SDL_VIDEO.H
C:\USERS\HANDERSON\DOCUMENTS\VISUAL STUDIO 2010\PROJECTS\CANDYINTHEDARK\SDL-1.2.15\INCLUDE\SDL_JOYSTICK.H
C:\USERS\HANDERSON\DOCUMENTS\VISUAL STUDIO 2010\PROJECTS\CANDYINTHEDARK\SDL-1.2.15\INCLUDE\SDL_QUIT.H
C:\USERS\HANDERSON\DOCUMENTS\VISUAL STUDIO 2010\PROJECTS\CANDYINTHEDARK\SDL-1.2.15\INCLUDE\SDL_LOADSO.H
C:\USERS\HANDERSON\DOCUMENTS\VISUAL STUDIO 2010\PROJECTS\CANDYINTHEDARK\SDL-1.2.15\INCLUDE\SDL_TIMER.H
C:\USERS\HANDERSON\DOCUMENTS\VISUAL STUDIO 2010\PROJECTS\CANDYINTHEDARK\SDL-1.2.15\INCLUDE\SDL_VERSION.H
C:\USERS\HANDERSON\DOCUMENTS\VISUAL STUDIO 2010\PROJECTS\CANDYINTHEDARK\SDL-1.2.15\INCLUDE\SDL_IMAGE.H
C:\PROGRAM FILES (X86)\MICROSOFT VISUAL STUDIO 10.0\VC\INCLUDE\STRING
C:\PROGRAM FILES (X86)\MICROSOFT VISUAL STUDIO 10.0\VC\INCLUDE\ISTREAM
C:\PROGRAM FILES (X86)\MICROSOFT VISUAL STUDIO 10.0\VC\INCLUDE\OSTREAM
C:\PROGRAM FILES (X86)\MICROSOFT VISUAL STUDIO 10.0\VC\INCLUDE\IOS
C:\PROGRAM FILES (X86)\MICROSOFT VISUAL STUDIO 10.0\VC\INCLUDE\XLOCNUM
C:\PROGRAM FILES (X86)\MICROSOFT VISUAL STUDIO 10.0\VC\INCLUDE\CLIMITS
C:\PROGRAM FILES (X86)\MICROSOFT VISUAL STUDIO 10.0\VC\INCLUDE\YVALS.H
C:\PROGRAM FILES (X86)\MICROSOFT VISUAL STUDIO 10.0\VC\INCLUDE\USE_ANSI.H
C:\PROGRAM FILES (X86)\MICROSOFT VISUAL STUDIO 10.0\VC\INCLUDE\CMATH
C:\PROGRAM FILES (X86)\MICROSOFT VISUAL STUDIO 10.0\VC\INCLUDE\MATH.H
C:\PROGRAM FILES (X86)\MICROSOFT VISUAL STUDIO 10.0\VC\INCLUDE\CSTDIO
C:\PROGRAM FILES (X86)\MICROSOFT VISUAL STUDIO 10.0\VC\INCLUDE\CSTDLIB
C:\PROGRAM FILES (X86)\MICROSOFT VISUAL STUDIO 10.0\VC\INCLUDE\STREAMBUF
C:\PROGRAM FILES (X86)\MICROSOFT VISUAL STUDIO 10.0\VC\INCLUDE\XIOSBASE
C:\PROGRAM FILES (X86)\MICROSOFT VISUAL STUDIO 10.0\VC\INCLUDE\XLOCALE
C:\PROGRAM FILES (X86)\MICROSOFT VISUAL STUDIO 10.0\VC\INCLUDE\CSTRING
C:\PROGRAM FILES (X86)\MICROSOFT VISUAL STUDIO 10.0\VC\INCLUDE\STDEXCEPT
C:\PROGRAM FILES (X86)\MICROSOFT VISUAL STUDIO 10.0\VC\INCLUDE\EXCEPTION
C:\PROGRAM FILES (X86)\MICROSOFT VISUAL STUDIO 10.0\VC\INCLUDE\XSTDDEF
C:\PROGRAM FILES (X86)\MICROSOFT VISUAL STUDIO 10.0\VC\INCLUDE\CSTDDEF
C:\PROGRAM FILES (X86)\MICROSOFT VISUAL STUDIO 10.0\VC\INCLUDE\EH.H
C:\PROGRAM FILES (X86)\MICROSOFT VISUAL STUDIO 10.0\VC\INCLUDE\XSTRING
C:\PROGRAM FILES (X86)\MICROSOFT VISUAL STUDIO 10.0\VC\INCLUDE\XMEMORY
C:\PROGRAM FILES (X86)\MICROSOFT VISUAL STUDIO 10.0\VC\INCLUDE\NEW
C:\PROGRAM FILES (X86)\MICROSOFT VISUAL STUDIO 10.0\VC\INCLUDE\XUTILITY
C:\PROGRAM FILES (X86)\MICROSOFT VISUAL STUDIO 10.0\VC\INCLUDE\UTILITY
C:\PROGRAM FILES (X86)\MICROSOFT VISUAL STUDIO 10.0\VC\INCLUDE\IOSFWD
C:\PROGRAM FILES (X86)\MICROSOFT VISUAL STUDIO 10.0\VC\INCLUDE\CWCHAR
C:\PROGRAM FILES (X86)\MICROSOFT VISUAL STUDIO 10.0\VC\INCLUDE\WCHAR.H
C:\PROGRAM FILES (X86)\MICROSOFT VISUAL STUDIO 10.0\VC\INCLUDE\WTIME.INL
C:\PROGRAM FILES (X86)\MICROSOFT VISUAL STUDIO 10.0\VC\INCLUDE\CRTDBG.H
C:\PROGRAM FILES (X86)\MICROSOFT VISUAL STUDIO 10.0\VC\INCLUDE\TYPE_TRAITS
C:\PROGRAM FILES (X86)\MICROSOFT VISUAL STUDIO 10.0\VC\INCLUDE\LIMITS
C:\PROGRAM FILES (X86)\MICROSOFT VISUAL STUDIO 10.0\VC\INCLUDE\YMATH.H
C:\PROGRAM FILES (X86)\MICROSOFT VISUAL STUDIO 10.0\VC\INCLUDE\CFLOAT
C:\PROGRAM FILES (X86)\MICROSOFT VISUAL STUDIO 10.0\VC\INCLUDE\FLOAT.H
C:\PROGRAM FILES (X86)\MICROSOFT VISUAL STUDIO 10.0\VC\INCLUDE\CRTWRN.H
C:\PROGRAM FILES (X86)\MICROSOFT VISUAL STUDIO 10.0\VC\INCLUDE\XTR1COMMON
C:\PROGRAM FILES (X86)\MICROSOFT VISUAL STUDIO 10.0\VC\INCLUDE\XFWRAP
C:\PROGRAM FILES (X86)\MICROSOFT VISUAL STUDIO 10.0\VC\INCLUDE\XFWRAP1
C:\PROGRAM FILES (X86)\MICROSOFT VISUAL STUDIO 10.0\VC\INCLUDE\XXTYPE_TRAITS
C:\PROGRAM FILES (X86)\MICROSOFT VISUAL STUDIO 10.0\VC\INCLUDE\TYPEINFO
C:\PROGRAM FILES (X86)\MICROSOFT VISUAL STUDIO 10.0\VC\INCLUDE\XLOCINFO
C:\PROGRAM FILES (X86)\MICROSOFT VISUAL STUDIO 10.0\VC\INCLUDE\XLOCINFO.H
C:\PROGRAM FILES (X86)\MICROSOFT VISUAL STUDIO 10.0\VC\INCLUDE\LOCALE.H
C:\PROGRAM FILES (X86)\MICROSOFT VISUAL STUDIO 10.0\VC\INCLUDE\XDEBUG
C:\PROGRAM FILES (X86)\MICROSOFT VISUAL STUDIO 10.0\VC\INCLUDE\SYSTEM_ERROR
C:\PROGRAM FILES (X86)\MICROSOFT VISUAL STUDIO 10.0\VC\INCLUDE\CERRNO
C:\PROGRAM FILES (X86)\MICROSOFT VISUAL STUDIO 10.0\VC\INCLUDE\ERRNO.H
C:\PROGRAM FILES (X86)\MICROSOFT VISUAL STUDIO 10.0\VC\INCLUDE\SHARE.H
C:\USERS\HANDERSON\DOCUMENTS\VISUAL STUDIO 2010\PROJECTS\CANDYINTHEDARK\GLOBAL.H
C:\USERS\HANDERSON\DOCUMENTS\VISUAL STUDIO 2010\PROJECTS\CANDYINTHEDARK\COLLIDABLE.H
^C:\USERS\HANDERSON\DOCUMENTS\VISUAL STUDIO 2010\PROJECTS\CANDYINTHEDARK\MAIN.CPP
C:\USERS\HANDERSON\DOCUMENTS\VISUAL STUDIO 2010\PROJECTS\CANDYINTHEDARK\SDL-1.2.15\INCLUDE\SDL.H
C:\USERS\HANDERSON\DOCUMENTS\VISUAL STUDIO 2010\PROJECTS\CANDYINTHEDARK\SDL-1.2.15\INCLUDE\SDL_MAIN.H
C:\USERS\HANDERSON\DOCUMENTS\VISUAL STUDIO 2010\PROJECTS\CANDYINTHEDARK\SDL-1.2.15\INCLUDE\SDL_STDINC.H
C:\USERS\HANDERSON\DOCUMENTS\VISUAL STUDIO 2010\PROJECTS\CANDYINTHEDARK\SDL-1.2.15\INCLUDE\SDL_CONFIG.H
C:\USERS\HANDERSON\DOCUMENTS\VISUAL STUDIO 2010\PROJECTS\CANDYINTHEDARK\SDL-1.2.15\INCLUDE\SDL_PLATFORM.H
C:\USERS\HANDERSON\DOCUMENTS\VISUAL STUDIO 2010\PROJECTS\CANDYINTHEDARK\SDL-1.2.15\INCLUDE\SDL_CONFIG_WIN32.H
C:\PROGRAM FILES (X86)\MICROSOFT VISUAL STUDIO 10.0\VC\INCLUDE\STDIO.H
C:\PROGRAM FILES (X86)\MICROSOFT VISUAL STUDIO 10.0\VC\INCLUDE\CRTDEFS.H
C:\PROGRAM FILES (X86)\MICROSOFT VISUAL STUDIO 10.0\VC\INCLUDE\SAL.H
C:\PROGRAM FILES (X86)\MICROSOFT VISUAL STUDIO 10.0\VC\INCLUDE\CODEANALYSIS\SOURCEANNOTATIONS.H
C:\PROGRAM FILES (X86)\MICROSOFT VISUAL STUDIO 10.0\VC\INCLUDE\VADEFS.H
C:\PROGRAM FILES (X86)\MICROSOFT VISUAL STUDIO 10.0\VC\INCLUDE\SWPRINTF.INL
C:\PROGRAM FILES (X86)\MICROSOFT VISUAL STUDIO 10.0\VC\INCLUDE\STDLIB.H
C:\PROGRAM FILES (X86)\MICROSOFT VISUAL STUDIO 10.0\VC\INCLUDE\LIMITS.H
C:\PROGRAM FILES (X86)\MICROSOFT VISUAL STUDIO 10.0\VC\INCLUDE\STDDEF.H
C:\PROGRAM FILES (X86)\MICROSOFT VISUAL STUDIO 10.0\VC\INCLUDE\STDARG.H
C:\PROGRAM FILES (X86)\MICROSOFT VISUAL STUDIO 10.0\VC\INCLUDE\STRING.H
C:\PROGRAM FILES (X86)\MICROSOFT VISUAL STUDIO 10.0\VC\INCLUDE\CTYPE.H
C:\USERS\HANDERSON\DOCUMENTS\VISUAL STUDIO 2010\PROJECTS\CANDYINTHEDARK\SDL-1.2.15\INCLUDE\BEGIN_CODE.H
C:\PROGRAM FILES (X86)\MICROSOFT VISUAL STUDIO 10.0\VC\INCLUDE\MALLOC.H
C:\USERS\HANDERSON\DOCUMENTS\VISUAL STUDIO 2010\PROJECTS\CANDYINTHEDARK\SDL-1.2.15\INCLUDE\CLOSE_CODE.H
C:\USERS\HANDERSON\DOCUMENTS\VISUAL STUDIO 2010\PROJECTS\CANDYINTHEDARK\SDL-1.2.15\INCLUDE\SDL_AUDIO.H
C:\USERS\HANDERSON\DOCUMENTS\VISUAL STUDIO 2010\PROJECTS\CANDYINTHEDARK\SDL-1.2.15\INCLUDE\SDL_ERROR.H
C:\USERS\HANDERSON\DOCUMENTS\VISUAL STUDIO 2010\PROJECTS\CANDYINTHEDARK\SDL-1.2.15\INCLUDE\SDL_ENDIAN.H
C:\USERS\HANDERSON\DOCUMENTS\VISUAL STUDIO 2010\PROJECTS\CANDYINTHEDARK\SDL-1.2.15\INCLUDE\SDL_MUTEX.H
C:\USERS\HANDERSON\DOCUMENTS\VISUAL STUDIO 2010\PROJECTS\CANDYINTHEDARK\SDL-1.2.15\INCLUDE\SDL_THREAD.H
C:\USERS\HANDERSON\DOCUMENTS\VISUAL STUDIO 2010\PROJECTS\CANDYINTHEDARK\SDL-1.2.15\INCLUDE\SDL_RWOPS.H
C:\USERS\HANDERSON\DOCUMENTS\VISUAL STUDIO 2010\PROJECTS\CANDYINTHEDARK\SDL-1.2.15\INCLUDE\SDL_CDROM.H
C:\USERS\HANDERSON\DOCUMENTS\VISUAL STUDIO 2010\PROJECTS\CANDYINTHEDARK\SDL-1.2.15\INCLUDE\SDL_CPUINFO.H
C:\USERS\HANDERSON\DOCUMENTS\VISUAL STUDIO 2010\PROJECTS\CANDYINTHEDARK\SDL-1.2.15\INCLUDE\SDL_EVENTS.H
C:\USERS\HANDERSON\DOCUMENTS\VISUAL STUDIO 2010\PROJECTS\CANDYINTHEDARK\SDL-1.2.15\INCLUDE\SDL_ACTIVE.H
C:\USERS\HANDERSON\DOCUMENTS\VISUAL STUDIO 2010\PROJECTS\CANDYINTHEDARK\SDL-1.2.15\INCLUDE\SDL_KEYBOARD.H
C:\USERS\HANDERSON\DOCUMENTS\VISUAL STUDIO 2010\PROJECTS\CANDYINTHEDARK\SDL-1.2.15\INCLUDE\SDL_KEYSYM.H
C:\USERS\HANDERSON\DOCUMENTS\VISUAL STUDIO 2010\PROJECTS\CANDYINTHEDARK\SDL-1.2.15\INCLUDE\SDL_MOUSE.H
C:\USERS\HANDERSON\DOCUMENTS\VISUAL STUDIO 2010\PROJECTS\CANDYINTHEDARK\SDL-1.2.15\INCLUDE\SDL_VIDEO.H
C:\USERS\HANDERSON\DOCUMENTS\VISUAL STUDIO 2010\PROJECTS\CANDYINTHEDARK\SDL-1.2.15\INCLUDE\SDL_JOYSTICK.H
C:\USERS\HANDERSON\DOCUMENTS\VISUAL STUDIO 2010\PROJECTS\CANDYINTHEDARK\SDL-1.2.15\INCLUDE\SDL_QUIT.H
C:\USERS\HANDERSON\DOCUMENTS\VISUAL STUDIO 2010\PROJECTS\CANDYINTHEDARK\SDL-1.2.15\INCLUDE\SDL_LOADSO.H
C:\USERS\HANDERSON\DOCUMENTS\VISUAL STUDIO 2010\PROJECTS\CANDYINTHEDARK\SDL-1.2.15\INCLUDE\SDL_TIMER.H
C:\USERS\HANDERSON\DOCUMENTS\VISUAL STUDIO 2010\PROJECTS\CANDYINTHEDARK\SDL-1.2.15\INCLUDE\SDL_VERSION.H
C:\USERS\HANDERSON\DOCUMENTS\VISUAL STUDIO 2010\PROJECTS\CANDYINTHEDARK\ENGINE.H
C:\USERS\HANDERSON\DOCUMENTS\VISUAL STUDIO 2010\PROJECTS\CANDYINTHEDARK\MORA.H
C:\USERS\HANDERSON\DOCUMENTS\VISUAL STUDIO 2010\PROJECTS\CANDYINTHEDARK\SDL-1.2.15\INCLUDE\SDL_IMAGE.H
C:\PROGRAM FILES (X86)\MICROSOFT VISUAL STUDIO 10.0\VC\INCLUDE\STRING
C:\PROGRAM FILES (X86)\MICROSOFT VISUAL STUDIO 10.0\VC\INCLUDE\ISTREAM
C:\PROGRAM FILES (X86)\MICROSOFT VISUAL STUDIO 10.0\VC\INCLUDE\OSTREAM
C:\PROGRAM FILES (X86)\MICROSOFT VISUAL STUDIO 10.0\VC\INCLUDE\IOS
C:\PROGRAM FILES (X86)\MICROSOFT VISUAL STUDIO 10.0\VC\INCLUDE\XLOCNUM
C:\PROGRAM FILES (X86)\MICROSOFT VISUAL STUDIO 10.0\VC\INCLUDE\CLIMITS
C:\PROGRAM FILES (X86)\MICROSOFT VISUAL STUDIO 10.0\VC\INCLUDE\YVALS.H
C:\PROGRAM FILES (X86)\MICROSOFT VISUAL STUDIO 10.0\VC\INCLUDE\USE_ANSI.H
C:\PROGRAM FILES (X86)\MICROSOFT VISUAL STUDIO 10.0\VC\INCLUDE\CMATH
C:\PROGRAM FILES (X86)\MICROSOFT VISUAL STUDIO 10.0\VC\INCLUDE\MATH.H
C:\PROGRAM FILES (X86)\MICROSOFT VISUAL STUDIO 10.0\VC\INCLUDE\CSTDIO
C:\PROGRAM FILES (X86)\MICROSOFT VISUAL STUDIO 10.0\VC\INCLUDE\CSTDLIB
C:\PROGRAM FILES (X86)\MICROSOFT VISUAL STUDIO 10.0\VC\INCLUDE\STREAMBUF
C:\PROGRAM FILES (X86)\MICROSOFT VISUAL STUDIO 10.0\VC\INCLUDE\XIOSBASE
C:\PROGRAM FILES (X86)\MICROSOFT VISUAL STUDIO 10.0\VC\INCLUDE\XLOCALE
C:\PROGRAM FILES (X86)\MICROSOFT VISUAL STUDIO 10.0\VC\INCLUDE\CSTRING
C:\PROGRAM FILES (X86)\MICROSOFT VISUAL STUDIO 10.0\VC\INCLUDE\STDEXCEPT
C:\PROGRAM FILES (X86)\MICROSOFT VISUAL STUDIO 10.0\VC\INCLUDE\EXCEPTION
C:\PROGRAM FILES (X86)\MICROSOFT VISUAL STUDIO 10.0\VC\INCLUDE\XSTDDEF
C:\PROGRAM FILES (X86)\MICROSOFT VISUAL STUDIO 10.0\VC\INCLUDE\CSTDDEF
C:\PROGRAM FILES (X86)\MICROSOFT VISUAL STUDIO 10.0\VC\INCLUDE\EH.H
C:\PROGRAM FILES (X86)\MICROSOFT VISUAL STUDIO 10.0\VC\INCLUDE\XSTRING
C:\PROGRAM FILES (X86)\MICROSOFT VISUAL STUDIO 10.0\VC\INCLUDE\XMEMORY
C:\PROGRAM FILES (X86)\MICROSOFT VISUAL STUDIO 10.0\VC\INCLUDE\NEW
C:\PROGRAM FILES (X86)\MICROSOFT VISUAL STUDIO 10.0\VC\INCLUDE\XUTILITY
C:\PROGRAM FILES (X86)\MICROSOFT VISUAL STUDIO 10.0\VC\INCLUDE\UTILITY
C:\PROGRAM FILES (X86)\MICROSOFT VISUAL STUDIO 10.0\VC\INCLUDE\IOSFWD
C:\PROGRAM FILES (X86)\MICROSOFT VISUAL STUDIO 10.0\VC\INCLUDE\CWCHAR
C:\PROGRAM FILES (X86)\MICROSOFT VISUAL STUDIO 10.0\VC\INCLUDE\WCHAR.H
C:\PROGRAM FILES (X86)\MICROSOFT VISUAL STUDIO 10.0\VC\INCLUDE\WTIME.INL
C:\PROGRAM FILES (X86)\MICROSOFT VISUAL STUDIO 10.0\VC\INCLUDE\CRTDBG.H
C:\PROGRAM FILES (X86)\MICROSOFT VISUAL STUDIO 10.0\VC\INCLUDE\TYPE_TRAITS
C:\PROGRAM FILES (X86)\MICROSOFT VISUAL STUDIO 10.0\VC\INCLUDE\LIMITS
C:\PROGRAM FILES (X86)\MICROSOFT VISUAL STUDIO 10.0\VC\INCLUDE\YMATH.H
C:\PROGRAM FILES (X86)\MICROSOFT VISUAL STUDIO 10.0\VC\INCLUDE\CFLOAT
C:\PROGRAM FILES (X86)\MICROSOFT VISUAL STUDIO 10.0\VC\INCLUDE\FLOAT.H
C:\PROGRAM FILES (X86)\MICROSOFT VISUAL STUDIO 10.0\VC\INCLUDE\CRTWRN.H
C:\PROGRAM FILES (X86)\MICROSOFT VISUAL STUDIO 10.0\VC\INCLUDE\XTR1COMMON
C:\PROGRAM FILES (X86)\MICROSOFT VISUAL STUDIO 10.0\VC\INCLUDE\XFWRAP
C:\PROGRAM FILES (X86)\MICROSOFT VISUAL STUDIO 10.0\VC\INCLUDE\XFWRAP1
C:\PROGRAM FILES (X86)\MICROSOFT VISUAL STUDIO 10.0\VC\INCLUDE\XXTYPE_TRAITS
C:\PROGRAM FILES (X86)\MICROSOFT VISUAL STUDIO 10.0\VC\INCLUDE\TYPEINFO
C:\PROGRAM FILES (X86)\MICROSOFT VISUAL STUDIO 10.0\VC\INCLUDE\XLOCINFO
C:\PROGRAM FILES (X86)\MICROSOFT VISUAL STUDIO 10.0\VC\INCLUDE\XLOCINFO.H
C:\PROGRAM FILES (X86)\MICROSOFT VISUAL STUDIO 10.0\VC\INCLUDE\LOCALE.H
C:\PROGRAM FILES (X86)\MICROSOFT VISUAL STUDIO 10.0\VC\INCLUDE\XDEBUG
C:\PROGRAM FILES (X86)\MICROSOFT VISUAL STUDIO 10.0\VC\INCLUDE\SYSTEM_ERROR
C:\PROGRAM FILES (X86)\MICROSOFT VISUAL STUDIO 10.0\VC\INCLUDE\CERRNO
C:\PROGRAM FILES (X86)\MICROSOFT VISUAL STUDIO 10.0\VC\INCLUDE\ERRNO.H
C:\PROGRAM FILES (X86)\MICROSOFT VISUAL STUDIO 10.0\VC\INCLUDE\SHARE.H
C:\USERS\HANDERSON\DOCUMENTS\VISUAL STUDIO 2010\PROJECTS\CANDYINTHEDARK\COLLIDABLE.H
C:\USERS\HANDERSON\DOCUMENTS\VISUAL STUDIO 2010\PROJECTS\CANDYINTHEDARK\HPBAR.H
C:\USERS\HANDERSON\DOCUMENTS\VISUAL STUDIO 2010\PROJECTS\CANDYINTHEDARK\MUSICPLAYER.H
C:\USERS\HANDERSON\DOCUMENTS\VISUAL STUDIO 2010\PROJECTS\CANDYINTHEDARK\SDL-1.2.15\INCLUDE\SDL_MIXER.H
C:\USERS\HANDERSON\DOCUMENTS\VISUAL STUDIO 2010\PROJECTS\CANDYINTHEDARK\SDL-1.2.15\INCLUDE\SDL_TYPES.H
C:\USERS\HANDERSON\DOCUMENTS\VISUAL STUDIO 2010\PROJECTS\CANDYINTHEDARK\GLOBAL.H
C:\USERS\HANDERSON\DOCUMENTS\VISUAL STUDIO 2010\PROJECTS\CANDYINTHEDARK\ENEMYBBABY.H
C:\USERS\HANDERSON\DOCUMENTS\VISUAL STUDIO 2010\PROJECTS\CANDYINTHEDARK\MONSTERS.H
C:\USERS\HANDERSON\DOCUMENTS\VISUAL STUDIO 2010\PROJECTS\CANDYINTHEDARK\PATHFINDING.H
C:\PROGRAM FILES (X86)\MICROSOFT VISUAL STUDIO 10.0\VC\INCLUDE\VECTOR
C:\PROGRAM FILES (X86)\MICROSOFT VISUAL STUDIO 10.0\VC\INCLUDE\MEMORY
C:\PROGRAM FILES (X86)\MICROSOFT VISUAL STUDIO 10.0\VC\INCLUDE\INTRIN.H
C:\PROGRAM FILES (X86)\MICROSOFT VISUAL STUDIO 10.0\VC\INCLUDE\SETJMP.H
C:\PROGRAM FILES (X86)\MICROSOFT VISUAL STUDIO 10.0\VC\INCLUDE\IMMINTRIN.H
C:\PROGRAM FILES (X86)\MICROSOFT VISUAL STUDIO 10.0\VC\INCLUDE\WMMINTRIN.H
C:\PROGRAM FILES (X86)\MICROSOFT VISUAL STUDIO 10.0\VC\INCLUDE\NMMINTRIN.H
C:\PROGRAM FILES (X86)\MICROSOFT VISUAL STUDIO 10.0\VC\INCLUDE\SMMINTRIN.H
C:\PROGRAM FILES (X86)\MICROSOFT VISUAL STUDIO 10.0\VC\INCLUDE\TMMINTRIN.H
C:\PROGRAM FILES (X86)\MICROSOFT VISUAL STUDIO 10.0\VC\INCLUDE\PMMINTRIN.H
C:\PROGRAM FILES (X86)\MICROSOFT VISUAL STUDIO 10.0\VC\INCLUDE\EMMINTRIN.H
C:\PROGRAM FILES (X86)\MICROSOFT VISUAL STUDIO 10.0\VC\INCLUDE\XMMINTRIN.H
C:\PROGRAM FILES (X86)\MICROSOFT VISUAL STUDIO 10.0\VC\INCLUDE\MMINTRIN.H
C:\PROGRAM FILES (X86)\MICROSOFT VISUAL STUDIO 10.0\VC\INCLUDE\AMMINTRIN.H
C:\PROGRAM FILES (X86)\MICROSOFT VISUAL STUDIO 10.0\VC\INCLUDE\MM3DNOW.H
C:\PROGRAM FILES (X86)\MICROSOFT VISUAL STUDIO 10.0\VC\INCLUDE\XXSHARED
C:\PROGRAM FILES (X86)\MICROSOFT VISUAL STUDIO 10.0\VC\INCLUDE\XFUNCTIONAL
C:\USERS\HANDERSON\DOCUMENTS\VISUAL STUDIO 2010\PROJECTS\CANDYINTHEDARK\NODE.H
C:\USERS\HANDERSON\DOCUMENTS\VISUAL STUDIO 2010\PROJECTS\CANDYINTHEDARK\DEBUGLEVEL.H
C:\USERS\HANDERSON\DOCUMENTS\VISUAL STUDIO 2010\PROJECTS\CANDYINTHEDARK\LEVEL.H
^C:\USERS\HANDERSON\DOCUMENTS\VISUAL STUDIO 2010\PROJECTS\CANDYINTHEDARK\MORA.CPP
C:\USERS\HANDERSON\DOCUMENTS\VISUAL STUDIO 2010\PROJECTS\CANDYINTHEDARK\MORA.H
C:\USERS\HANDERSON\DOCUMENTS\VISUAL STUDIO 2010\PROJECTS\CANDYINTHEDARK\SDL-1.2.15\INCLUDE\SDL.H
C:\USERS\HANDERSON\DOCUMENTS\VISUAL STUDIO 2010\PROJECTS\CANDYINTHEDARK\SDL-1.2.15\INCLUDE\SDL_MAIN.H
C:\USERS\HANDERSON\DOCUMENTS\VISUAL STUDIO 2010\PROJECTS\CANDYINTHEDARK\SDL-1.2.15\INCLUDE\SDL_STDINC.H
C:\USERS\HANDERSON\DOCUMENTS\VISUAL STUDIO 2010\PROJECTS\CANDYINTHEDARK\SDL-1.2.15\INCLUDE\SDL_CONFIG.H
C:\USERS\HANDERSON\DOCUMENTS\VISUAL STUDIO 2010\PROJECTS\CANDYINTHEDARK\SDL-1.2.15\INCLUDE\SDL_PLATFORM.H
C:\USERS\HANDERSON\DOCUMENTS\VISUAL STUDIO 2010\PROJECTS\CANDYINTHEDARK\SDL-1.2.15\INCLUDE\SDL_CONFIG_WIN32.H
C:\PROGRAM FILES (X86)\MICROSOFT VISUAL STUDIO 10.0\VC\INCLUDE\STDIO.H
C:\PROGRAM FILES (X86)\MICROSOFT VISUAL STUDIO 10.0\VC\INCLUDE\CRTDEFS.H
C:\PROGRAM FILES (X86)\MICROSOFT VISUAL STUDIO 10.0\VC\INCLUDE\SAL.H
C:\PROGRAM FILES (X86)\MICROSOFT VISUAL STUDIO 10.0\VC\INCLUDE\CODEANALYSIS\SOURCEANNOTATIONS.H
C:\PROGRAM FILES (X86)\MICROSOFT VISUAL STUDIO 10.0\VC\INCLUDE\VADEFS.H
C:\PROGRAM FILES (X86)\MICROSOFT VISUAL STUDIO 10.0\VC\INCLUDE\SWPRINTF.INL
C:\PROGRAM FILES (X86)\MICROSOFT VISUAL STUDIO 10.0\VC\INCLUDE\STDLIB.H
C:\PROGRAM FILES (X86)\MICROSOFT VISUAL STUDIO 10.0\VC\INCLUDE\LIMITS.H
C:\PROGRAM FILES (X86)\MICROSOFT VISUAL STUDIO 10.0\VC\INCLUDE\STDDEF.H
C:\PROGRAM FILES (X86)\MICROSOFT VISUAL STUDIO 10.0\VC\INCLUDE\STDARG.H
C:\PROGRAM FILES (X86)\MICROSOFT VISUAL STUDIO 10.0\VC\INCLUDE\STRING.H
C:\PROGRAM FILES (X86)\MICROSOFT VISUAL STUDIO 10.0\VC\INCLUDE\CTYPE.H
C:\USERS\HANDERSON\DOCUMENTS\VISUAL STUDIO 2010\PROJECTS\CANDYINTHEDARK\SDL-1.2.15\INCLUDE\BEGIN_CODE.H
C:\PROGRAM FILES (X86)\MICROSOFT VISUAL STUDIO 10.0\VC\INCLUDE\MALLOC.H
C:\USERS\HANDERSON\DOCUMENTS\VISUAL STUDIO 2010\PROJECTS\CANDYINTHEDARK\SDL-1.2.15\INCLUDE\CLOSE_CODE.H
C:\USERS\HANDERSON\DOCUMENTS\VISUAL STUDIO 2010\PROJECTS\CANDYINTHEDARK\SDL-1.2.15\INCLUDE\SDL_AUDIO.H
C:\USERS\HANDERSON\DOCUMENTS\VISUAL STUDIO 2010\PROJECTS\CANDYINTHEDARK\SDL-1.2.15\INCLUDE\SDL_ERROR.H
C:\USERS\HANDERSON\DOCUMENTS\VISUAL STUDIO 2010\PROJECTS\CANDYINTHEDARK\SDL-1.2.15\INCLUDE\SDL_ENDIAN.H
C:\USERS\HANDERSON\DOCUMENTS\VISUAL STUDIO 2010\PROJECTS\CANDYINTHEDARK\SDL-1.2.15\INCLUDE\SDL_MUTEX.H
C:\USERS\HANDERSON\DOCUMENTS\VISUAL STUDIO 2010\PROJECTS\CANDYINTHEDARK\SDL-1.2.15\INCLUDE\SDL_THREAD.H
C:\USERS\HANDERSON\DOCUMENTS\VISUAL STUDIO 2010\PROJECTS\CANDYINTHEDARK\SDL-1.2.15\INCLUDE\SDL_RWOPS.H
C:\USERS\HANDERSON\DOCUMENTS\VISUAL STUDIO 2010\PROJECTS\CANDYINTHEDARK\SDL-1.2.15\INCLUDE\SDL_CDROM.H
C:\USERS\HANDERSON\DOCUMENTS\VISUAL STUDIO 2010\PROJECTS\CANDYINTHEDARK\SDL-1.2.15\INCLUDE\SDL_CPUINFO.H
C:\USERS\HANDERSON\DOCUMENTS\VISUAL STUDIO 2010\PROJECTS\CANDYINTHEDARK\SDL-1.2.15\INCLUDE\SDL_EVENTS.H
C:\USERS\HANDERSON\DOCUMENTS\VISUAL STUDIO 2010\PROJECTS\CANDYINTHEDARK\SDL-1.2.15\INCLUDE\SDL_ACTIVE.H
C:\USERS\HANDERSON\DOCUMENTS\VISUAL STUDIO 2010\PROJECTS\CANDYINTHEDARK\SDL-1.2.15\INCLUDE\SDL_KEYBOARD.H
C:\USERS\HANDERSON\DOCUMENTS\VISUAL STUDIO 2010\PROJECTS\CANDYINTHEDARK\SDL-1.2.15\INCLUDE\SDL_KEYSYM.H
C:\USERS\HANDERSON\DOCUMENTS\VISUAL STUDIO 2010\PROJECTS\CANDYINTHEDARK\SDL-1.2.15\INCLUDE\SDL_MOUSE.H
C:\USERS\HANDERSON\DOCUMENTS\VISUAL STUDIO 2010\PROJECTS\CANDYINTHEDARK\SDL-1.2.15\INCLUDE\SDL_VIDEO.H
C:\USERS\HANDERSON\DOCUMENTS\VISUAL STUDIO 2010\PROJECTS\CANDYINTHEDARK\SDL-1.2.15\INCLUDE\SDL_JOYSTICK.H
C:\USERS\HANDERSON\DOCUMENTS\VISUAL STUDIO 2010\PROJECTS\CANDYINTHEDARK\SDL-1.2.15\INCLUDE\SDL_QUIT.H
C:\USERS\HANDERSON\DOCUMENTS\VISUAL STUDIO 2010\PROJECTS\CANDYINTHEDARK\SDL-1.2.15\INCLUDE\SDL_LOADSO.H
C:\USERS\HANDERSON\DOCUMENTS\VISUAL STUDIO 2010\PROJECTS\CANDYINTHEDARK\SDL-1.2.15\INCLUDE\SDL_TIMER.H
C:\USERS\HANDERSON\DOCUMENTS\VISUAL STUDIO 2010\PROJECTS\CANDYINTHEDARK\SDL-1.2.15\INCLUDE\SDL_VERSION.H
C:\USERS\HANDERSON\DOCUMENTS\VISUAL STUDIO 2010\PROJECTS\CANDYINTHEDARK\SDL-1.2.15\INCLUDE\SDL_IMAGE.H
C:\PROGRAM FILES (X86)\MICROSOFT VISUAL STUDIO 10.0\VC\INCLUDE\STRING
C:\PROGRAM FILES (X86)\MICROSOFT VISUAL STUDIO 10.0\VC\INCLUDE\ISTREAM
C:\PROGRAM FILES (X86)\MICROSOFT VISUAL STUDIO 10.0\VC\INCLUDE\OSTREAM
C:\PROGRAM FILES (X86)\MICROSOFT VISUAL STUDIO 10.0\VC\INCLUDE\IOS
C:\PROGRAM FILES (X86)\MICROSOFT VISUAL STUDIO 10.0\VC\INCLUDE\XLOCNUM
C:\PROGRAM FILES (X86)\MICROSOFT VISUAL STUDIO 10.0\VC\INCLUDE\CLIMITS
C:\PROGRAM FILES (X86)\MICROSOFT VISUAL STUDIO 10.0\VC\INCLUDE\YVALS.H
C:\PROGRAM FILES (X86)\MICROSOFT VISUAL STUDIO 10.0\VC\INCLUDE\USE_ANSI.H
C:\PROGRAM FILES (X86)\MICROSOFT VISUAL STUDIO 10.0\VC\INCLUDE\CMATH
C:\PROGRAM FILES (X86)\MICROSOFT VISUAL STUDIO 10.0\VC\INCLUDE\MATH.H
C:\PROGRAM FILES (X86)\MICROSOFT VISUAL STUDIO 10.0\VC\INCLUDE\CSTDIO
C:\PROGRAM FILES (X86)\MICROSOFT VISUAL STUDIO 10.0\VC\INCLUDE\CSTDLIB
C:\PROGRAM FILES (X86)\MICROSOFT VISUAL STUDIO 10.0\VC\INCLUDE\STREAMBUF
C:\PROGRAM FILES (X86)\MICROSOFT VISUAL STUDIO 10.0\VC\INCLUDE\XIOSBASE
C:\PROGRAM FILES (X86)\MICROSOFT VISUAL STUDIO 10.0\VC\INCLUDE\XLOCALE
C:\PROGRAM FILES (X86)\MICROSOFT VISUAL STUDIO 10.0\VC\INCLUDE\CSTRING
C:\PROGRAM FILES (X86)\MICROSOFT VISUAL STUDIO 10.0\VC\INCLUDE\STDEXCEPT
C:\PROGRAM FILES (X86)\MICROSOFT VISUAL STUDIO 10.0\VC\INCLUDE\EXCEPTION
C:\PROGRAM FILES (X86)\MICROSOFT VISUAL STUDIO 10.0\VC\INCLUDE\XSTDDEF
C:\PROGRAM FILES (X86)\MICROSOFT VISUAL STUDIO 10.0\VC\INCLUDE\CSTDDEF
C:\PROGRAM FILES (X86)\MICROSOFT VISUAL STUDIO 10.0\VC\INCLUDE\EH.H
C:\PROGRAM FILES (X86)\MICROSOFT VISUAL STUDIO 10.0\VC\INCLUDE\XSTRING
C:\PROGRAM FILES (X86)\MICROSOFT VISUAL STUDIO 10.0\VC\INCLUDE\XMEMORY
C:\PROGRAM FILES (X86)\MICROSOFT VISUAL STUDIO 10.0\VC\INCLUDE\NEW
C:\PROGRAM FILES (X86)\MICROSOFT VISUAL STUDIO 10.0\VC\INCLUDE\XUTILITY
C:\PROGRAM FILES (X86)\MICROSOFT VISUAL STUDIO 10.0\VC\INCLUDE\UTILITY
C:\PROGRAM FILES (X86)\MICROSOFT VISUAL STUDIO 10.0\VC\INCLUDE\IOSFWD
C:\PROGRAM FILES (X86)\MICROSOFT VISUAL STUDIO 10.0\VC\INCLUDE\CWCHAR
C:\PROGRAM FILES (X86)\MICROSOFT VISUAL STUDIO 10.0\VC\INCLUDE\WCHAR.H
C:\PROGRAM FILES (X86)\MICROSOFT VISUAL STUDIO 10.0\VC\INCLUDE\WTIME.INL
C:\PROGRAM FILES (X86)\MICROSOFT VISUAL STUDIO 10.0\VC\INCLUDE\CRTDBG.H
C:\PROGRAM FILES (X86)\MICROSOFT VISUAL STUDIO 10.0\VC\INCLUDE\TYPE_TRAITS
C:\PROGRAM FILES (X86)\MICROSOFT VISUAL STUDIO 10.0\VC\INCLUDE\LIMITS
C:\PROGRAM FILES (X86)\MICROSOFT VISUAL STUDIO 10.0\VC\INCLUDE\YMATH.H
C:\PROGRAM FILES (X86)\MICROSOFT VISUAL STUDIO 10.0\VC\INCLUDE\CFLOAT
C:\PROGRAM FILES (X86)\MICROSOFT VISUAL STUDIO 10.0\VC\INCLUDE\FLOAT.H
C:\PROGRAM FILES (X86)\MICROSOFT VISUAL STUDIO 10.0\VC\INCLUDE\CRTWRN.H
C:\PROGRAM FILES (X86)\MICROSOFT VISUAL STUDIO 10.0\VC\INCLUDE\XTR1COMMON
C:\PROGRAM FILES (X86)\MICROSOFT VISUAL STUDIO 10.0\VC\INCLUDE\XFWRAP
C:\PROGRAM FILES (X86)\MICROSOFT VISUAL STUDIO 10.0\VC\INCLUDE\XFWRAP1
C:\PROGRAM FILES (X86)\MICROSOFT VISUAL STUDIO 10.0\VC\INCLUDE\XXTYPE_TRAITS
C:\PROGRAM FILES (X86)\MICROSOFT VISUAL STUDIO 10.0\VC\INCLUDE\TYPEINFO
C:\PROGRAM FILES (X86)\MICROSOFT VISUAL STUDIO 10.0\VC\INCLUDE\XLOCINFO
C:\PROGRAM FILES (X86)\MICROSOFT VISUAL STUDIO 10.0\VC\INCLUDE\XLOCINFO.H
C:\PROGRAM FILES (X86)\MICROSOFT VISUAL STUDIO 10.0\VC\INCLUDE\LOCALE.H
C:\PROGRAM FILES (X86)\MICROSOFT VISUAL STUDIO 10.0\VC\INCLUDE\XDEBUG
C:\PROGRAM FILES (X86)\MICROSOFT VISUAL STUDIO 10.0\VC\INCLUDE\SYSTEM_ERROR
C:\PROGRAM FILES (X86)\MICROSOFT VISUAL STUDIO 10.0\VC\INCLUDE\CERRNO
C:\PROGRAM FILES (X86)\MICROSOFT VISUAL STUDIO 10.0\VC\INCLUDE\ERRNO.H
C:\PROGRAM FILES (X86)\MICROSOFT VISUAL STUDIO 10.0\VC\INCLUDE\SHARE.H
C:\USERS\HANDERSON\DOCUMENTS\VISUAL STUDIO 2010\PROJECTS\CANDYINTHEDARK\COLLIDABLE.H
C:\USERS\HANDERSON\DOCUMENTS\VISUAL STUDIO 2010\PROJECTS\CANDYINTHEDARK\HPBAR.H
C:\USERS\HANDERSON\DOCUMENTS\VISUAL STUDIO 2010\PROJECTS\CANDYINTHEDARK\MUSICPLAYER.H
C:\USERS\HANDERSON\DOCUMENTS\VISUAL STUDIO 2010\PROJECTS\CANDYINTHEDARK\SDL-1.2.15\INCLUDE\SDL_MIXER.H
C:\USERS\HANDERSON\DOCUMENTS\VISUAL STUDIO 2010\PROJECTS\CANDYINTHEDARK\SDL-1.2.15\INCLUDE\SDL_TYPES.H
C:\USERS\HANDERSON\DOCUMENTS\VISUAL STUDIO 2010\PROJECTS\CANDYINTHEDARK\GLOBAL.H
^C:\USERS\HANDERSON\DOCUMENTS\VISUAL STUDIO 2010\PROJECTS\CANDYINTHEDARK\MUSICPLAYER.CPP
C:\USERS\HANDERSON\DOCUMENTS\VISUAL STUDIO 2010\PROJECTS\CANDYINTHEDARK\MUSICPLAYER.H
C:\USERS\HANDERSON\DOCUMENTS\VISUAL STUDIO 2010\PROJECTS\CANDYINTHEDARK\SDL-1.2.15\INCLUDE\SDL_MIXER.H
C:\USERS\HANDERSON\DOCUMENTS\VISUAL STUDIO 2010\PROJECTS\CANDYINTHEDARK\SDL-1.2.15\INCLUDE\SDL_TYPES.H
C:\USERS\HANDERSON\DOCUMENTS\VISUAL STUDIO 2010\PROJECTS\CANDYINTHEDARK\SDL-1.2.15\INCLUDE\SDL_STDINC.H
C:\USERS\HANDERSON\DOCUMENTS\VISUAL STUDIO 2010\PROJECTS\CANDYINTHEDARK\SDL-1.2.15\INCLUDE\SDL_CONFIG.H
C:\USERS\HANDERSON\DOCUMENTS\VISUAL STUDIO 2010\PROJECTS\CANDYINTHEDARK\SDL-1.2.15\INCLUDE\SDL_PLATFORM.H
C:\USERS\HANDERSON\DOCUMENTS\VISUAL STUDIO 2010\PROJECTS\CANDYINTHEDARK\SDL-1.2.15\INCLUDE\SDL_CONFIG_WIN32.H
C:\PROGRAM FILES (X86)\MICROSOFT VISUAL STUDIO 10.0\VC\INCLUDE\STDIO.H
C:\PROGRAM FILES (X86)\MICROSOFT VISUAL STUDIO 10.0\VC\INCLUDE\CRTDEFS.H
C:\PROGRAM FILES (X86)\MICROSOFT VISUAL STUDIO 10.0\VC\INCLUDE\SAL.H
C:\PROGRAM FILES (X86)\MICROSOFT VISUAL STUDIO 10.0\VC\INCLUDE\CODEANALYSIS\SOURCEANNOTATIONS.H
C:\PROGRAM FILES (X86)\MICROSOFT VISUAL STUDIO 10.0\VC\INCLUDE\VADEFS.H
C:\PROGRAM FILES (X86)\MICROSOFT VISUAL STUDIO 10.0\VC\INCLUDE\SWPRINTF.INL
C:\PROGRAM FILES (X86)\MICROSOFT VISUAL STUDIO 10.0\VC\INCLUDE\STDLIB.H
C:\PROGRAM FILES (X86)\MICROSOFT VISUAL STUDIO 10.0\VC\INCLUDE\LIMITS.H
C:\PROGRAM FILES (X86)\MICROSOFT VISUAL STUDIO 10.0\VC\INCLUDE\STDDEF.H
C:\PROGRAM FILES (X86)\MICROSOFT VISUAL STUDIO 10.0\VC\INCLUDE\STDARG.H
C:\PROGRAM FILES (X86)\MICROSOFT VISUAL STUDIO 10.0\VC\INCLUDE\STRING.H
C:\PROGRAM FILES (X86)\MICROSOFT VISUAL STUDIO 10.0\VC\INCLUDE\CTYPE.H
C:\USERS\HANDERSON\DOCUMENTS\VISUAL STUDIO 2010\PROJECTS\CANDYINTHEDARK\SDL-1.2.15\INCLUDE\BEGIN_CODE.H
C:\PROGRAM FILES (X86)\MICROSOFT VISUAL STUDIO 10.0\VC\INCLUDE\MALLOC.H
C:\USERS\HANDERSON\DOCUMENTS\VISUAL STUDIO 2010\PROJECTS\CANDYINTHEDARK\SDL-1.2.15\INCLUDE\CLOSE_CODE.H
C:\USERS\HANDERSON\DOCUMENTS\VISUAL STUDIO 2010\PROJECTS\CANDYINTHEDARK\SDL-1.2.15\INCLUDE\SDL_RWOPS.H
C:\USERS\HANDERSON\DOCUMENTS\VISUAL STUDIO 2010\PROJECTS\CANDYINTHEDARK\SDL-1.2.15\INCLUDE\SDL_ERROR.H
C:\USERS\HANDERSON\DOCUMENTS\VISUAL STUDIO 2010\PROJECTS\CANDYINTHEDARK\SDL-1.2.15\INCLUDE\SDL_AUDIO.H
C:\USERS\HANDERSON\DOCUMENTS\VISUAL STUDIO 2010\PROJECTS\CANDYINTHEDARK\SDL-1.2.15\INCLUDE\SDL_ENDIAN.H
C:\USERS\HANDERSON\DOCUMENTS\VISUAL STUDIO 2010\PROJECTS\CANDYINTHEDARK\SDL-1.2.15\INCLUDE\SDL_MUTEX.H
C:\USERS\HANDERSON\DOCUMENTS\VISUAL STUDIO 2010\PROJECTS\CANDYINTHEDARK\SDL-1.2.15\INCLUDE\SDL_THREAD.H
C:\USERS\HANDERSON\DOCUMENTS\VISUAL STUDIO 2010\PROJECTS\CANDYINTHEDARK\SDL-1.2.15\INCLUDE\SDL_VERSION.H
C:\USERS\HANDERSON\DOCUMENTS\VISUAL STUDIO 2010\PROJECTS\CANDYINTHEDARK\GLOBAL.H
C:\PROGRAM FILES (X86)\MICROSOFT VISUAL STUDIO 10.0\VC\INCLUDE\STRING
C:\PROGRAM FILES (X86)\MICROSOFT VISUAL STUDIO 10.0\VC\INCLUDE\ISTREAM
C:\PROGRAM FILES (X86)\MICROSOFT VISUAL STUDIO 10.0\VC\INCLUDE\OSTREAM
C:\PROGRAM FILES (X86)\MICROSOFT VISUAL STUDIO 10.0\VC\INCLUDE\IOS
C:\PROGRAM FILES (X86)\MICROSOFT VISUAL STUDIO 10.0\VC\INCLUDE\XLOCNUM
C:\PROGRAM FILES (X86)\MICROSOFT VISUAL STUDIO 10.0\VC\INCLUDE\CLIMITS
C:\PROGRAM FILES (X86)\MICROSOFT VISUAL STUDIO 10.0\VC\INCLUDE\YVALS.H
C:\PROGRAM FILES (X86)\MICROSOFT VISUAL STUDIO 10.0\VC\INCLUDE\USE_ANSI.H
C:\PROGRAM FILES (X86)\MICROSOFT VISUAL STUDIO 10.0\VC\INCLUDE\CMATH
C:\PROGRAM FILES (X86)\MICROSOFT VISUAL STUDIO 10.0\VC\INCLUDE\MATH.H
C:\PROGRAM FILES (X86)\MICROSOFT VISUAL STUDIO 10.0\VC\INCLUDE\CSTDIO
C:\PROGRAM FILES (X86)\MICROSOFT VISUAL STUDIO 10.0\VC\INCLUDE\CSTDLIB
C:\PROGRAM FILES (X86)\MICROSOFT VISUAL STUDIO 10.0\VC\INCLUDE\STREAMBUF
C:\PROGRAM FILES (X86)\MICROSOFT VISUAL STUDIO 10.0\VC\INCLUDE\XIOSBASE
C:\PROGRAM FILES (X86)\MICROSOFT VISUAL STUDIO 10.0\VC\INCLUDE\XLOCALE
C:\PROGRAM FILES (X86)\MICROSOFT VISUAL STUDIO 10.0\VC\INCLUDE\CSTRING
C:\PROGRAM FILES (X86)\MICROSOFT VISUAL STUDIO 10.0\VC\INCLUDE\STDEXCEPT
C:\PROGRAM FILES (X86)\MICROSOFT VISUAL STUDIO 10.0\VC\INCLUDE\EXCEPTION
C:\PROGRAM FILES (X86)\MICROSOFT VISUAL STUDIO 10.0\VC\INCLUDE\XSTDDEF
C:\PROGRAM FILES (X86)\MICROSOFT VISUAL STUDIO 10.0\VC\INCLUDE\CSTDDEF
C:\PROGRAM FILES (X86)\MICROSOFT VISUAL STUDIO 10.0\VC\INCLUDE\EH.H
C:\PROGRAM FILES (X86)\MICROSOFT VISUAL STUDIO 10.0\VC\INCLUDE\XSTRING
C:\PROGRAM FILES (X86)\MICROSOFT VISUAL STUDIO 10.0\VC\INCLUDE\XMEMORY
C:\PROGRAM FILES (X86)\MICROSOFT VISUAL STUDIO 10.0\VC\INCLUDE\NEW
C:\PROGRAM FILES (X86)\MICROSOFT VISUAL STUDIO 10.0\VC\INCLUDE\XUTILITY
C:\PROGRAM FILES (X86)\MICROSOFT VISUAL STUDIO 10.0\VC\INCLUDE\UTILITY
C:\PROGRAM FILES (X86)\MICROSOFT VISUAL STUDIO 10.0\VC\INCLUDE\IOSFWD
C:\PROGRAM FILES (X86)\MICROSOFT VISUAL STUDIO 10.0\VC\INCLUDE\CWCHAR
C:\PROGRAM FILES (X86)\MICROSOFT VISUAL STUDIO 10.0\VC\INCLUDE\WCHAR.H
C:\PROGRAM FILES (X86)\MICROSOFT VISUAL STUDIO 10.0\VC\INCLUDE\WTIME.INL
C:\PROGRAM FILES (X86)\MICROSOFT VISUAL STUDIO 10.0\VC\INCLUDE\CRTDBG.H
C:\PROGRAM FILES (X86)\MICROSOFT VISUAL STUDIO 10.0\VC\INCLUDE\TYPE_TRAITS
C:\PROGRAM FILES (X86)\MICROSOFT VISUAL STUDIO 10.0\VC\INCLUDE\LIMITS
C:\PROGRAM FILES (X86)\MICROSOFT VISUAL STUDIO 10.0\VC\INCLUDE\YMATH.H
C:\PROGRAM FILES (X86)\MICROSOFT VISUAL STUDIO 10.0\VC\INCLUDE\CFLOAT
C:\PROGRAM FILES (X86)\MICROSOFT VISUAL STUDIO 10.0\VC\INCLUDE\FLOAT.H
C:\PROGRAM FILES (X86)\MICROSOFT VISUAL STUDIO 10.0\VC\INCLUDE\CRTWRN.H
C:\PROGRAM FILES (X86)\MICROSOFT VISUAL STUDIO 10.0\VC\INCLUDE\XTR1COMMON
C:\PROGRAM FILES (X86)\MICROSOFT VISUAL STUDIO 10.0\VC\INCLUDE\XFWRAP
C:\PROGRAM FILES (X86)\MICROSOFT VISUAL STUDIO 10.0\VC\INCLUDE\XFWRAP1
C:\PROGRAM FILES (X86)\MICROSOFT VISUAL STUDIO 10.0\VC\INCLUDE\XXTYPE_TRAITS
C:\PROGRAM FILES (X86)\MICROSOFT VISUAL STUDIO 10.0\VC\INCLUDE\TYPEINFO
C:\PROGRAM FILES (X86)\MICROSOFT VISUAL STUDIO 10.0\VC\INCLUDE\XLOCINFO
C:\PROGRAM FILES (X86)\MICROSOFT VISUAL STUDIO 10.0\VC\INCLUDE\XLOCINFO.H
C:\PROGRAM FILES (X86)\MICROSOFT VISUAL STUDIO 10.0\VC\INCLUDE\LOCALE.H
C:\PROGRAM FILES (X86)\MICROSOFT VISUAL STUDIO 10.0\VC\INCLUDE\XDEBUG
C:\PROGRAM FILES (X86)\MICROSOFT VISUAL STUDIO 10.0\VC\INCLUDE\SYSTEM_ERROR
C:\PROGRAM FILES (X86)\MICROSOFT VISUAL STUDIO 10.0\VC\INCLUDE\CERRNO
C:\PROGRAM FILES (X86)\MICROSOFT VISUAL STUDIO 10.0\VC\INCLUDE\ERRNO.H
C:\PROGRAM FILES (X86)\MICROSOFT VISUAL STUDIO 10.0\VC\INCLUDE\SHARE.H
C:\USERS\HANDERSON\DOCUMENTS\VISUAL STUDIO 2010\PROJECTS\CANDYINTHEDARK\SDL-1.2.15\INCLUDE\SDL.H
C:\USERS\HANDERSON\DOCUMENTS\VISUAL STUDIO 2010\PROJECTS\CANDYINTHEDARK\SDL-1.2.15\INCLUDE\SDL_MAIN.H
C:\USERS\HANDERSON\DOCUMENTS\VISUAL STUDIO 2010\PROJECTS\CANDYINTHEDARK\SDL-1.2.15\INCLUDE\SDL_CDROM.H
C:\USERS\HANDERSON\DOCUMENTS\VISUAL STUDIO 2010\PROJECTS\CANDYINTHEDARK\SDL-1.2.15\INCLUDE\SDL_CPUINFO.H
C:\USERS\HANDERSON\DOCUMENTS\VISUAL STUDIO 2010\PROJECTS\CANDYINTHEDARK\SDL-1.2.15\INCLUDE\SDL_EVENTS.H
C:\USERS\HANDERSON\DOCUMENTS\VISUAL STUDIO 2010\PROJECTS\CANDYINTHEDARK\SDL-1.2.15\INCLUDE\SDL_ACTIVE.H
C:\USERS\HANDERSON\DOCUMENTS\VISUAL STUDIO 2010\PROJECTS\CANDYINTHEDARK\SDL-1.2.15\INCLUDE\SDL_KEYBOARD.H
C:\USERS\HANDERSON\DOCUMENTS\VISUAL STUDIO 2010\PROJECTS\CANDYINTHEDARK\SDL-1.2.15\INCLUDE\SDL_KEYSYM.H
C:\USERS\HANDERSON\DOCUMENTS\VISUAL STUDIO 2010\PROJECTS\CANDYINTHEDARK\SDL-1.2.15\INCLUDE\SDL_MOUSE.H
C:\USERS\HANDERSON\DOCUMENTS\VISUAL STUDIO 2010\PROJECTS\CANDYINTHEDARK\SDL-1.2.15\INCLUDE\SDL_VIDEO.H
C:\USERS\HANDERSON\DOCUMENTS\VISUAL STUDIO 2010\PROJECTS\CANDYINTHEDARK\SDL-1.2.15\INCLUDE\SDL_JOYSTICK.H
C:\USERS\HANDERSON\DOCUMENTS\VISUAL STUDIO 2010\PROJECTS\CANDYINTHEDARK\SDL-1.2.15\INCLUDE\SDL_QUIT.H
C:\USERS\HANDERSON\DOCUMENTS\VISUAL STUDIO 2010\PROJECTS\CANDYINTHEDARK\SDL-1.2.15\INCLUDE\SDL_LOADSO.H
C:\USERS\HANDERSON\DOCUMENTS\VISUAL STUDIO 2010\PROJECTS\CANDYINTHEDARK\SDL-1.2.15\INCLUDE\SDL_TIMER.H
C:\USERS\HANDERSON\DOCUMENTS\VISUAL STUDIO 2010\PROJECTS\CANDYINTHEDARK\SDL-1.2.15\INCLUDE\SDL_IMAGE.H
C:\USERS\HANDERSON\DOCUMENTS\VISUAL STUDIO 2010\PROJECTS\CANDYINTHEDARK\COLLIDABLE.H
^C:\USERS\HANDERSON\DOCUMENTS\VISUAL STUDIO 2010\PROJECTS\CANDYINTHEDARK\PATHFINDING.CPP
C:\USERS\HANDERSON\DOCUMENTS\VISUAL STUDIO 2010\PROJECTS\CANDYINTHEDARK\PATHFINDING.H
C:\USERS\HANDERSON\DOCUMENTS\VISUAL STUDIO 2010\PROJECTS\CANDYINTHEDARK\SDL-1.2.15\INCLUDE\SDL.H
C:\USERS\HANDERSON\DOCUMENTS\VISUAL STUDIO 2010\PROJECTS\CANDYINTHEDARK\SDL-1.2.15\INCLUDE\SDL_MAIN.H
C:\USERS\HANDERSON\DOCUMENTS\VISUAL STUDIO 2010\PROJECTS\CANDYINTHEDARK\SDL-1.2.15\INCLUDE\SDL_STDINC.H
C:\USERS\HANDERSON\DOCUMENTS\VISUAL STUDIO 2010\PROJECTS\CANDYINTHEDARK\SDL-1.2.15\INCLUDE\SDL_CONFIG.H
C:\USERS\HANDERSON\DOCUMENTS\VISUAL STUDIO 2010\PROJECTS\CANDYINTHEDARK\SDL-1.2.15\INCLUDE\SDL_PLATFORM.H
C:\USERS\HANDERSON\DOCUMENTS\VISUAL STUDIO 2010\PROJECTS\CANDYINTHEDARK\SDL-1.2.15\INCLUDE\SDL_CONFIG_WIN32.H
C:\PROGRAM FILES (X86)\MICROSOFT VISUAL STUDIO 10.0\VC\INCLUDE\STDIO.H
C:\PROGRAM FILES (X86)\MICROSOFT VISUAL STUDIO 10.0\VC\INCLUDE\CRTDEFS.H
C:\PROGRAM FILES (X86)\MICROSOFT VISUAL STUDIO 10.0\VC\INCLUDE\SAL.H
C:\PROGRAM FILES (X86)\MICROSOFT VISUAL STUDIO 10.0\VC\INCLUDE\CODEANALYSIS\SOURCEANNOTATIONS.H
C:\PROGRAM FILES (X86)\MICROSOFT VISUAL STUDIO 10.0\VC\INCLUDE\VADEFS.H
C:\PROGRAM FILES (X86)\MICROSOFT VISUAL STUDIO 10.0\VC\INCLUDE\SWPRINTF.INL
C:\PROGRAM FILES (X86)\MICROSOFT VISUAL STUDIO 10.0\VC\INCLUDE\STDLIB.H
C:\PROGRAM FILES (X86)\MICROSOFT VISUAL STUDIO 10.0\VC\INCLUDE\LIMITS.H
C:\PROGRAM FILES (X86)\MICROSOFT VISUAL STUDIO 10.0\VC\INCLUDE\STDDEF.H
C:\PROGRAM FILES (X86)\MICROSOFT VISUAL STUDIO 10.0\VC\INCLUDE\STDARG.H
C:\PROGRAM FILES (X86)\MICROSOFT VISUAL STUDIO 10.0\VC\INCLUDE\STRING.H
C:\PROGRAM FILES (X86)\MICROSOFT VISUAL STUDIO 10.0\VC\INCLUDE\CTYPE.H
C:\USERS\HANDERSON\DOCUMENTS\VISUAL STUDIO 2010\PROJECTS\CANDYINTHEDARK\SDL-1.2.15\INCLUDE\BEGIN_CODE.H
C:\PROGRAM FILES (X86)\MICROSOFT VISUAL STUDIO 10.0\VC\INCLUDE\MALLOC.H
C:\USERS\HANDERSON\DOCUMENTS\VISUAL STUDIO 2010\PROJECTS\CANDYINTHEDARK\SDL-1.2.15\INCLUDE\CLOSE_CODE.H
C:\USERS\HANDERSON\DOCUMENTS\VISUAL STUDIO 2010\PROJECTS\CANDYINTHEDARK\SDL-1.2.15\INCLUDE\SDL_AUDIO.H
C:\USERS\HANDERSON\DOCUMENTS\VISUAL STUDIO 2010\PROJECTS\CANDYINTHEDARK\SDL-1.2.15\INCLUDE\SDL_ERROR.H
C:\USERS\HANDERSON\DOCUMENTS\VISUAL STUDIO 2010\PROJECTS\CANDYINTHEDARK\SDL-1.2.15\INCLUDE\SDL_ENDIAN.H
C:\USERS\HANDERSON\DOCUMENTS\VISUAL STUDIO 2010\PROJECTS\CANDYINTHEDARK\SDL-1.2.15\INCLUDE\SDL_MUTEX.H
C:\USERS\HANDERSON\DOCUMENTS\VISUAL STUDIO 2010\PROJECTS\CANDYINTHEDARK\SDL-1.2.15\INCLUDE\SDL_THREAD.H
C:\USERS\HANDERSON\DOCUMENTS\VISUAL STUDIO 2010\PROJECTS\CANDYINTHEDARK\SDL-1.2.15\INCLUDE\SDL_RWOPS.H
C:\USERS\HANDERSON\DOCUMENTS\VISUAL STUDIO 2010\PROJECTS\CANDYINTHEDARK\SDL-1.2.15\INCLUDE\SDL_CDROM.H
C:\USERS\HANDERSON\DOCUMENTS\VISUAL STUDIO 2010\PROJECTS\CANDYINTHEDARK\SDL-1.2.15\INCLUDE\SDL_CPUINFO.H
C:\USERS\HANDERSON\DOCUMENTS\VISUAL STUDIO 2010\PROJECTS\CANDYINTHEDARK\SDL-1.2.15\INCLUDE\SDL_EVENTS.H
C:\USERS\HANDERSON\DOCUMENTS\VISUAL STUDIO 2010\PROJECTS\CANDYINTHEDARK\SDL-1.2.15\INCLUDE\SDL_ACTIVE.H
C:\USERS\HANDERSON\DOCUMENTS\VISUAL STUDIO 2010\PROJECTS\CANDYINTHEDARK\SDL-1.2.15\INCLUDE\SDL_KEYBOARD.H
C:\USERS\HANDERSON\DOCUMENTS\VISUAL STUDIO 2010\PROJECTS\CANDYINTHEDARK\SDL-1.2.15\INCLUDE\SDL_KEYSYM.H
C:\USERS\HANDERSON\DOCUMENTS\VISUAL STUDIO 2010\PROJECTS\CANDYINTHEDARK\SDL-1.2.15\INCLUDE\SDL_MOUSE.H
C:\USERS\HANDERSON\DOCUMENTS\VISUAL STUDIO 2010\PROJECTS\CANDYINTHEDARK\SDL-1.2.15\INCLUDE\SDL_VIDEO.H
C:\USERS\HANDERSON\DOCUMENTS\VISUAL STUDIO 2010\PROJECTS\CANDYINTHEDARK\SDL-1.2.15\INCLUDE\SDL_JOYSTICK.H
C:\USERS\HANDERSON\DOCUMENTS\VISUAL STUDIO 2010\PROJECTS\CANDYINTHEDARK\SDL-1.2.15\INCLUDE\SDL_QUIT.H
C:\USERS\HANDERSON\DOCUMENTS\VISUAL STUDIO 2010\PROJECTS\CANDYINTHEDARK\SDL-1.2.15\INCLUDE\SDL_LOADSO.H
C:\USERS\HANDERSON\DOCUMENTS\VISUAL STUDIO 2010\PROJECTS\CANDYINTHEDARK\SDL-1.2.15\INCLUDE\SDL_TIMER.H
C:\USERS\HANDERSON\DOCUMENTS\VISUAL STUDIO 2010\PROJECTS\CANDYINTHEDARK\SDL-1.2.15\INCLUDE\SDL_VERSION.H
C:\PROGRAM FILES (X86)\MICROSOFT VISUAL STUDIO 10.0\VC\INCLUDE\VECTOR
C:\PROGRAM FILES (X86)\MICROSOFT VISUAL STUDIO 10.0\VC\INCLUDE\MEMORY
C:\PROGRAM FILES (X86)\MICROSOFT VISUAL STUDIO 10.0\VC\INCLUDE\XMEMORY
C:\PROGRAM FILES (X86)\MICROSOFT VISUAL STUDIO 10.0\VC\INCLUDE\CSTDLIB
C:\PROGRAM FILES (X86)\MICROSOFT VISUAL STUDIO 10.0\VC\INCLUDE\YVALS.H
C:\PROGRAM FILES (X86)\MICROSOFT VISUAL STUDIO 10.0\VC\INCLUDE\USE_ANSI.H
C:\PROGRAM FILES (X86)\MICROSOFT VISUAL STUDIO 10.0\VC\INCLUDE\NEW
C:\PROGRAM FILES (X86)\MICROSOFT VISUAL STUDIO 10.0\VC\INCLUDE\EXCEPTION
C:\PROGRAM FILES (X86)\MICROSOFT VISUAL STUDIO 10.0\VC\INCLUDE\XSTDDEF
C:\PROGRAM FILES (X86)\MICROSOFT VISUAL STUDIO 10.0\VC\INCLUDE\CSTDDEF
C:\PROGRAM FILES (X86)\MICROSOFT VISUAL STUDIO 10.0\VC\INCLUDE\EH.H
C:\PROGRAM FILES (X86)\MICROSOFT VISUAL STUDIO 10.0\VC\INCLUDE\XUTILITY
C:\PROGRAM FILES (X86)\MICROSOFT VISUAL STUDIO 10.0\VC\INCLUDE\CLIMITS
C:\PROGRAM FILES (X86)\MICROSOFT VISUAL STUDIO 10.0\VC\INCLUDE\UTILITY
C:\PROGRAM FILES (X86)\MICROSOFT VISUAL STUDIO 10.0\VC\INCLUDE\IOSFWD
C:\PROGRAM FILES (X86)\MICROSOFT VISUAL STUDIO 10.0\VC\INCLUDE\CSTDIO
C:\PROGRAM FILES (X86)\MICROSOFT VISUAL STUDIO 10.0\VC\INCLUDE\CSTRING
C:\PROGRAM FILES (X86)\MICROSOFT VISUAL STUDIO 10.0\VC\INCLUDE\CWCHAR
C:\PROGRAM FILES (X86)\MICROSOFT VISUAL STUDIO 10.0\VC\INCLUDE\WCHAR.H
C:\PROGRAM FILES (X86)\MICROSOFT VISUAL STUDIO 10.0\VC\INCLUDE\WTIME.INL
C:\PROGRAM FILES (X86)\MICROSOFT VISUAL STUDIO 10.0\VC\INCLUDE\CRTDBG.H
C:\PROGRAM FILES (X86)\MICROSOFT VISUAL STUDIO 10.0\VC\INCLUDE\TYPE_TRAITS
C:\PROGRAM FILES (X86)\MICROSOFT VISUAL STUDIO 10.0\VC\INCLUDE\LIMITS
C:\PROGRAM FILES (X86)\MICROSOFT VISUAL STUDIO 10.0\VC\INCLUDE\YMATH.H
C:\PROGRAM FILES (X86)\MICROSOFT VISUAL STUDIO 10.0\VC\INCLUDE\CFLOAT
C:\PROGRAM FILES (X86)\MICROSOFT VISUAL STUDIO 10.0\VC\INCLUDE\FLOAT.H
C:\PROGRAM FILES (X86)\MICROSOFT VISUAL STUDIO 10.0\VC\INCLUDE\CRTWRN.H
C:\PROGRAM FILES (X86)\MICROSOFT VISUAL STUDIO 10.0\VC\INCLUDE\CMATH
C:\PROGRAM FILES (X86)\MICROSOFT VISUAL STUDIO 10.0\VC\INCLUDE\MATH.H
C:\PROGRAM FILES (X86)\MICROSOFT VISUAL STUDIO 10.0\VC\INCLUDE\XTR1COMMON
C:\PROGRAM FILES (X86)\MICROSOFT VISUAL STUDIO 10.0\VC\INCLUDE\XFWRAP
C:\PROGRAM FILES (X86)\MICROSOFT VISUAL STUDIO 10.0\VC\INCLUDE\XFWRAP1
C:\PROGRAM FILES (X86)\MICROSOFT VISUAL STUDIO 10.0\VC\INCLUDE\XXTYPE_TRAITS
C:\PROGRAM FILES (X86)\MICROSOFT VISUAL STUDIO 10.0\VC\INCLUDE\TYPEINFO
C:\PROGRAM FILES (X86)\MICROSOFT VISUAL STUDIO 10.0\VC\INCLUDE\INTRIN.H
C:\PROGRAM FILES (X86)\MICROSOFT VISUAL STUDIO 10.0\VC\INCLUDE\SETJMP.H
C:\PROGRAM FILES (X86)\MICROSOFT VISUAL STUDIO 10.0\VC\INCLUDE\IMMINTRIN.H
C:\PROGRAM FILES (X86)\MICROSOFT VISUAL STUDIO 10.0\VC\INCLUDE\WMMINTRIN.H
C:\PROGRAM FILES (X86)\MICROSOFT VISUAL STUDIO 10.0\VC\INCLUDE\NMMINTRIN.H
C:\PROGRAM FILES (X86)\MICROSOFT VISUAL STUDIO 10.0\VC\INCLUDE\SMMINTRIN.H
C:\PROGRAM FILES (X86)\MICROSOFT VISUAL STUDIO 10.0\VC\INCLUDE\TMMINTRIN.H
C:\PROGRAM FILES (X86)\MICROSOFT VISUAL STUDIO 10.0\VC\INCLUDE\PMMINTRIN.H
C:\PROGRAM FILES (X86)\MICROSOFT VISUAL STUDIO 10.0\VC\INCLUDE\EMMINTRIN.H
C:\PROGRAM FILES (X86)\MICROSOFT VISUAL STUDIO 10.0\VC\INCLUDE\XMMINTRIN.H
C:\PROGRAM FILES (X86)\MICROSOFT VISUAL STUDIO 10.0\VC\INCLUDE\MMINTRIN.H
C:\PROGRAM FILES (X86)\MICROSOFT VISUAL STUDIO 10.0\VC\INCLUDE\AMMINTRIN.H
C:\PROGRAM FILES (X86)\MICROSOFT VISUAL STUDIO 10.0\VC\INCLUDE\MM3DNOW.H
C:\PROGRAM FILES (X86)\MICROSOFT VISUAL STUDIO 10.0\VC\INCLUDE\XXSHARED
C:\PROGRAM FILES (X86)\MICROSOFT VISUAL STUDIO 10.0\VC\INCLUDE\STDEXCEPT
C:\PROGRAM FILES (X86)\MICROSOFT VISUAL STUDIO 10.0\VC\INCLUDE\XSTRING
C:\PROGRAM FILES (X86)\MICROSOFT VISUAL STUDIO 10.0\VC\INCLUDE\XFUNCTIONAL
C:\USERS\HANDERSON\DOCUMENTS\VISUAL STUDIO 2010\PROJECTS\CANDYINTHEDARK\NODE.H
C:\USERS\HANDERSON\DOCUMENTS\VISUAL STUDIO 2010\PROJECTS\CANDYINTHEDARK\COLLIDABLE.H
C:\PROGRAM FILES (X86)\MICROSOFT VISUAL STUDIO 10.0\VC\INCLUDE\ITERATOR
C:\PROGRAM FILES (X86)\MICROSOFT VISUAL STUDIO 10.0\VC\INCLUDE\ISTREAM
C:\PROGRAM FILES (X86)\MICROSOFT VISUAL STUDIO 10.0\VC\INCLUDE\OSTREAM
C:\PROGRAM FILES (X86)\MICROSOFT VISUAL STUDIO 10.0\VC\INCLUDE\IOS
C:\PROGRAM FILES (X86)\MICROSOFT VISUAL STUDIO 10.0\VC\INCLUDE\XLOCNUM
C:\PROGRAM FILES (X86)\MICROSOFT VISUAL STUDIO 10.0\VC\INCLUDE\STREAMBUF
C:\PROGRAM FILES (X86)\MICROSOFT VISUAL STUDIO 10.0\VC\INCLUDE\XIOSBASE
C:\PROGRAM FILES (X86)\MICROSOFT VISUAL STUDIO 10.0\VC\INCLUDE\XLOCALE
C:\PROGRAM FILES (X86)\MICROSOFT VISUAL STUDIO 10.0\VC\INCLUDE\XLOCINFO
C:\PROGRAM FILES (X86)\MICROSOFT VISUAL STUDIO 10.0\VC\INCLUDE\XLOCINFO.H
C:\PROGRAM FILES (X86)\MICROSOFT VISUAL STUDIO 10.0\VC\INCLUDE\LOCALE.H
C:\PROGRAM FILES (X86)\MICROSOFT VISUAL STUDIO 10.0\VC\INCLUDE\XDEBUG
C:\PROGRAM FILES (X86)\MICROSOFT VISUAL STUDIO 10.0\VC\INCLUDE\SYSTEM_ERROR
C:\PROGRAM FILES (X86)\MICROSOFT VISUAL STUDIO 10.0\VC\INCLUDE\CERRNO
C:\PROGRAM FILES (X86)\MICROSOFT VISUAL STUDIO 10.0\VC\INCLUDE\ERRNO.H
C:\PROGRAM FILES (X86)\MICROSOFT VISUAL STUDIO 10.0\VC\INCLUDE\SHARE.H
C:\USERS\HANDERSON\DOCUMENTS\VISUAL STUDIO 2010\PROJECTS\CANDYINTHEDARK\GLOBAL.H
C:\PROGRAM FILES (X86)\MICROSOFT VISUAL STUDIO 10.0\VC\INCLUDE\STRING
C:\USERS\HANDERSON\DOCUMENTS\VISUAL STUDIO 2010\PROJECTS\CANDYINTHEDARK\SDL-1.2.15\INCLUDE\SDL_IMAGE.H
